{
    "name": "walmart-strollers-ss-trans-pl",
    "desc": "walmart Strollers Standard Strollers transformation pipeline",
    "pyFiles": [
        {
            "pyFile": "gs://content_us/framework/stage/dependencies/us.zip"
        }
    ],
    "arguments": [
        {
            "pipeline": "gs://content_us/framework/stage/pipelines/product/product_transformation_pipeline.json"
        },
        {
            "var":"project_id=mercari-us-de,bucket_name=content_us,env=stage,app=walmart,source=walmart.com,category=strollers,brand=standard_strollers,entity_template=walmart_entity_template.json,entity_mapped_schema=walmart_entity_schema.json,key_mapper_script=us.product.transform.key_mapper,inputPath=content_us/raw/walmart.com/strollers/standard_strollers/2019-10-17_14_07_48/json/walmart_brand_filtered.txt"
        }
    ],
    "driver": {
        "cores": 1,
        "coreLimit": "1",
        "memory": "3g"
    },
    "executor": {
        "cores": 1,
        "instances": 3,
        "memory": "3g"
    }
}
