{
    "name": "wikipedia-cell_phones_smartphones-apple-trans-pl",
    "desc": "wikipedia cell_phones_smartphones apple transformation pipeline",
    "pyFiles": [
      {
        "pyFile": "gs://content_us/framework/$env/dependencies/us.zip"
      }
    ],
    "arguments": [
      {
        "pipeline": "gs://content_us/framework/$env/pipelines/product/product_transformation_pipeline.json"
      },
      {
        "var": "project_id=mercari-us-de,bucket_name=content_us,env=$env,app=wikipedia,source=wikipedia.com,category=cell_phones_smartphones,brand=apple,entity_template=cell_phones_smartphones_apple_entity_template.json,entity_mapped_schema=cell_phones_smartphones_apple_entity_schema.json,key_mapper_script=us.wikipedia.transform.cell_phones_smartphones.apple.key_mapper,inputPath="
      }
    ],
    "driver": {
      "cores": 1,
      "coreLimit": "1",
      "memory": "3g"
    },
    "executor": {
      "cores": 1,
      "instances": 1,
      "memory": "3g"
    },
    "pipeline_properties": {
      "modules": [
        {
          "type": "modules.transformation_module.TransformationModule",
          "properties": {
            "name": "transformer",
            "input": "raw",
            "output": "transformed",
            "partition": 1,
            "map_class": "us.$app.transform.$category.$brand.pre_product_transformation_script.Mapper"
          }
        }
      ]
    }
  }
  