[
    {
        "entity": "system_category",
        "path": "$.category"
    },
    {
        "entity": "brand",
        "path": "$.brand"
    },
    {
        "entity":"model",
        "path":"$.model"
    },
    {
        "entity":"material",
        "path":"$.material"
    },
    {
        "entity":"color",
        "path":"$.color"
    },
    {
        "entity":"msrp",
        "path":"$.price.amount"
    },
    {
        "entity":"shoe_width",
        "path":"$.shoe_width"
    },
    {
        "entity":"description",
        "path":"$.description"
    },
    {
        "entity":"model_sku",
        "path":"$.model_sku"
    }
]
