[
    {
        "entity": "system_category",
        "path": "$.category"
    },
    {
        "entity": "brand",
        "path": "$.brand"
    },
    {
        "entity": "model",
        "path": "$.model"
    },
    {
        "entity": "color",
        "path": "$.color"
    },
    {
        "entity": "msrp",
        "path": "$.msrp.amount"
    },
    {
        "entity": "price",
        "path": "$.price.amount"
    },
    {
        "entity":"release_date",
        "path":"$.release_date"
    },
    {
        "entity":"release_year",
        "path":"$.release_year"
    },
    {
        "entity":"item_condition",
        "path":"$.item_condition"
    },
    {
        "entity":"description",
        "path":"$.description"
    }
]
