[
    {
        "entity": "system_category",
        "path": "$.category"
    },
    {
        "entity": "brand",
        "path": "$.brand"
    },
    {
        "entity": "model",
        "path": "$.model"
    },
    {
        "entity": "color",
        "path": "$.color"
    },
    {
        "entity": "item_title",
        "path": "$.title"
    },
    {
        "entity": "msrp",
        "path": "$.est_retail.amount"
    },
    {
        "entity":"release_date",
        "path":"$.release_date"
    },
    {
        "entity":"model_sku",
        "path":"$.style"
    }
]
