{
  "name": "blackcraftcult-men_s_pants-blackcraft_cult-trans-pl",
  "desc": "blackcraftcult men_s_pants blackcraft_cult transformation pipeline",
  "pyFiles": [
    {
      "pyFile": "gs://content_us/framework/$env/dependencies/us.zip"
    }
  ],
  "arguments": [
    {
      "pipeline": "gs://content_us/framework/$env/pipelines/product/product_transformation_pipeline.json"
    },
    {
      "var": "project_id=mercari-us-de,bucket_name=content_us,env=$env,app=blackcraftcult,source=blackcraftcult.com,category=men_s_pants,brand=blackcraft_cult,entity_template=men_s_pants_entity_template.json,entity_mapped_schema=men_s_pants_entity_schema.json,key_mapper_script=us.blackcraftcult.transform.men_s_pants.key_mapper,inputPath=content_us/raw/blackcraftcult.com/mens_pants/blackcraft_cult/2021-05-09-19-25-07/json/blackcraftcult.txt"
    }
  ],
  "driver": {
    "cores": 1,
    "coreLimit": "1",
    "memory": "3g"
  },
  "executor": {
    "cores": 1,
    "instances": 1,
    "memory": "3g"
  },
  "pipeline_properties": {
    "modules": [
      {
        "type": "modules.transformation_module.TransformationModule",
        "properties": {
          "name": "transformer",
          "input": "raw",
          "output": "transformed",
          "partition": 1,
          "map_class": "us.$app.transform.$category.pre_product_transformation_script.Mapper"
        }
      }
    ]
  }
}
