{
    "name": "vintagedooney-transformation-pipeline",
    "desc": "vintagedooney transformation pipeline",
    "pyFiles": [
        {
            "pyFile": "gs://imaginea_content_us/framework/dev/dependencies/us.zip"
        }
    ],
    "arguments": [
        {
            "pipeline": "gs://imaginea_content_us/framework/dev/pipelines/product/product_transformation_pipeline.json"
        },
        {
            "var":"project_id=mercari-us-imaginea-dev,bucket_name=imaginea_content_us,env=dev,app=vintagedooney,source=vintagedooney.com,category=shoulder_bags,brand=dooney_&_bourke,entity_template=vintagedooney_entity_template.json,inputPath=content_us/raw/vintagedooney.com/shoulder_bags/dooney_&_bourke/2019-07-23_21_58_13/json/vintagedooney.txt"
        }
    ],
    "driver": {
        "cores": 1,
        "coreLimit": "1",
        "memory": "3g"
    },
    "executor": {
        "cores": 1,
        "instances": 1,
        "memory": "3g"
    }
}
