{
  "name": "nail art design colorstreet-trans-pl",
  "desc": "Nail Art Design Color Street transformation pipeline",
  "pyFiles": [
    {
      "pyFile": "gs://content_us/framework/stage/dependencies/us.zip"
    }
  ],
  "arguments": [
    {
      "pipeline": "gs://content_us/framework/stage/pipelines/product/product_transformation_pipeline.json"
    },
    {
      "var": "project_id=mercari-us-de,bucket_name=content_us,env=stage,app=colorstreet,source=colorstreet.com,category=nail_art_designs,brand=color_street,entity_template=nail_art_design_entity_template.json,entity_mapped_schema=nail_art_design_entity_schema.json,key_mapper_script=us.colorstreet.transform.nail_art_designs.key_mapper,inputPath=content_us/raw/colorstreet.com/nail_art_designs/color_street/json/2020-01-09_18_55_46/colorstreet.txt"
    }
  ],
  "driver": {
    "cores": 1,
    "coreLimit": "1",
    "memory": "3g"
  },
  "executor": {
    "cores": 1,
    "instances": 1,
    "memory": "3g"
  },
  "pipeline_properties": {
    "modules": [
      {
        "type": "modules.transformation_module.TransformationModule",
        "properties": {
          "name": "transformer",
          "input": "raw",
          "output": "transformed",
          "partition": 1,
          "map_class": "us.$app.transform.$category.pre_product_transformation_script.Mapper"
        }
      }
    ]
  }
}
