{
  "name": "underarmour-boys-pants-sizes-4-up-trans-pl",
  "desc": "Under Armour Boys 4+ Bottoms underarmour.com transformation pipeline",
  "pyFiles": [
    {
      "pyFile": "gs://content_us/framework/stage/dependencies/us.zip"
    }
  ],
  "arguments": [
    {
      "pipeline": "gs://content_us/framework/stage/pipelines/product/product_transformation_pipeline.json"
    },
    {
      "var": "project_id=mercari-us-de,bucket_name=content_us,env=stage,app=underarmour,source=underarmour.com,category=boys_pants_sizes_4_up,brand=under_armour,entity_template=boys_pants_sizes_4_up_entity_template.json,entity_mapped_schema=boys_pants_sizes_4_up_entity_schema.json,key_mapper_script=us.underarmour.transform.boys_pants_sizes_4_up.key_mapper,inputPath=content_us/raw/underarmour.com/boys_pants_sizes_4_up/under_armour/2020-08-29_11_18_28/json/underarmour.txt"
    }
  ],
  "driver": {
    "cores": 1,
    "coreLimit": "1",
    "memory": "3g"
  },
  "executor": {
    "cores": 1,
    "instances": 1,
    "memory": "3g"
  },
  "pipeline_properties": {
    "modules": [
      {
        "type": "modules.transformation_module.TransformationModule",
        "properties": {
          "name": "transformer",
          "input": "raw",
          "output": "transformed",
          "partition": 1,
          "map_class": "us.$app.transform.$category.pre_product_transformation_script.Mapper"
        }
      }
    ]
  }
}
