{
  "name": "underarmour-pants-tights-leggings-trans-pl",
  "desc": "Under Armour Women's Pants, tights, leggings underarmour.com transformation pipeline",
  "pyFiles": [
    {
      "pyFile": "gs://content_us/framework/stage/dependencies/us.zip"
    }
  ],
  "arguments": [
    {
      "pipeline": "gs://content_us/framework/stage/pipelines/product/product_transformation_pipeline.json"
    },
    {
      "var": "project_id=mercari-us-de,bucket_name=content_us,env=stage,app=underarmour,source=underarmour.com,category=pants_tights_leggings,brand=under_armour,entity_template=pants_tights_leggings_entity_template.json,entity_mapped_schema=pants_tights_leggings_entity_schema.json,key_mapper_script=us.underarmour.transform.pants_tights_leggings.key_mapper,inputPath=content_us/raw/underarmour.com/pants_tights_leggings/under_armour/2020-08-27_00_21_58/json/underarmour.txt"
    }
  ],
  "driver": {
    "cores": 1,
    "coreLimit": "1",
    "memory": "3g"
  },
  "executor": {
    "cores": 1,
    "instances": 1,
    "memory": "3g"
  },
  "pipeline_properties": {
    "modules": [
      {
        "type": "modules.transformation_module.TransformationModule",
        "properties": {
          "name": "transformer",
          "input": "raw",
          "output": "transformed",
          "partition": 1,
          "map_class": "us.$app.transform.$category.pre_product_transformation_script.Mapper"
        }
      }
    ]
  }
}
