{
    "name": "thredup womens knee length lularoe-transformation-pipeline",
    "desc": "Thredup Women's Knee Length transformation pipeline",
    "pyFiles": [{
        "pyFile": "gs://content_us/framework/stage/dependencies/us.zip"
    }],
    "arguments": [{
            "pipeline": "gs://content_us/framework/stage/pipelines/product/product_transformation_pipeline.json"
        },
        {
            "var": "project_id=mercari-us-de,bucket_name=content_us,env=stage,app=thredup,source=thredup.com,category=womens_knee_length_dresses,brand=lularoe,entity_template=womens_knee_entity_template.json,entity_mapped_schema=womens_knee_entity_schema.json,key_mapper_script=us.thredup.transform.womens_knee_length_dresses.lularoe.key_mapper,inputPath=content_us/raw/thredup.com/womens_knee_length_dresses/lularoe/2019-12-27_13_41_50/json/thredup.txt"
        }
    ],
    "driver": {
        "cores": 1,
        "coreLimit": "1",
        "memory": "3g"
    },
    "executor": {
        "cores": 1,
        "instances": 1,
        "memory": "3g"
    },
    "pipeline_properties": {
        "modules": [{
            "type": "modules.transformation_module.TransformationModule",
            "properties": {
                "name": "transformer",
                "input": "raw",
                "output": "transformed",
                "partition": 1,
                "map_class": "us.$app.transform.$category.$brand.pre_product_transformation_script.Mapper"
            }
        }]
    }
}