{
  "name": "backpacks-michaelkors-trans-pl",
  "desc": "Michael Kors Backpacks transformation pipeline",
  "pyFiles": [
    {
      "pyFile": "gs://content_us/framework/$env/dependencies/us.zip"
    }
  ],
  "arguments": [
    {
      "pipeline": "gs://content_us/framework/$env/pipelines/product/dedupe/product_transformation_pipeline.json"
    },
    {
      "var": "project_id=mercari-us-de,bucket_name=content_us,env=$env,app=michaelkors,source=michaelkors.com,category=backpacks,brand=michael_kors,entity_template=backpacks_entity_template.json,entity_mapped_schema=backpacks_entity_schema.json,key_mapper_script=us.michaelkors.transform.backpacks.key_mapper,inputPath=content_us/raw/michaelkors.com/backpacks/michael_kors/2021-03-01-05-31-39/json/michaelkors.txt,dedupe_criteria_system_category=Backpacks,dedupe_criteria_brand=Michael%20Kors,kg_raw_items_dedupe_column=modelSku,pre_product_dedupe_column=model_sku,merge_func=us.michaelkors.transform.backpacks.merge_func.Merger"
    }
  ],
  "driver": {
    "cores": 1,
    "coreLimit": "1",
    "memory": "3g"
  },
  "executor": {
    "cores": 1,
    "instances": 1,
    "memory": "3g"
  },
  "pipeline_properties": {
    "modules": [
      {
        "type": "modules.transformation_module.TransformationModule",
        "properties": {
          "name": "transformer",
          "input": "raw",
          "output": "transformed",
          "partition": 1,
          "map_class": "us.$app.transform.backpacks.pre_product_transformation_script.Mapper"
        }
      }
    ]
  }
}
