{
  "name": "shoulder-bags-michaelkors-trans-pl",
  "desc": "Michael Kors Shoulder Bags transformation pipeline",
  "pyFiles": [
    {
      "pyFile": "gs://content_us/framework/$env/dependencies/us.zip"
    }
  ],
  "arguments": [
    {
      "pipeline": "gs://content_us/framework/$env/pipelines/product/dedupe/product_transformation_pipeline.json"
    },
    {
      "var": "project_id=mercari-us-de,bucket_name=content_us,env=$env,app=michaelkors,source=michaelkors.com,category=shoulder_bags,brand=michael_kors,entity_template=shoulder_bags_entity_template.json,entity_mapped_schema=shoulder_bags_entity_schema.json,key_mapper_script=us.michaelkors.transform.shoulder_bags.key_mapper,inputPath=content_us/raw/michaelkors.com/shoulder_bags/michael_kors/2021-02-03_19_16_53/json/michaelkors.txt,dedupe_criteria_system_category=Shoulder%20Bags,dedupe_criteria_brand=Michael%20Kors,pre_product_dedupe_column=model_sku,kg_raw_items_dedupe_column=modelSku,merge_func=us.michaelkors.transform.shoulder_bags.merge_func.Merger"
    }
  ],
  "driver": {
    "cores": 1,
    "coreLimit": "1",
    "memory": "3g"
  },
  "executor": {
    "cores": 1,
    "instances": 1,
    "memory": "3g"
  },
  "pipeline_properties": {
    "modules": [
      {
        "type": "modules.transformation_module.TransformationModule",
        "properties": {
          "name": "transformer",
          "input": "raw",
          "output": "transformed",
          "partition": 1,
          "map_class": "us.$app.transform.shoulder_bags.pre_product_transformation_script.Mapper"
        }
      }
    ]
  }
}
