[
    {
        "entity": "system_category",
        "path": "$.category"
    },
    {
        "entity": "brand",
        "path": "$.brand"
    },
    {
        "entity": "model",
        "path": "$.model"
    },
    {
        "entity": "color",
        "path": "$.color"
    },
    {
        "entity": "weight",
        "path": "$.weight"
    },
    {
        "entity": "price",
        "path": "$.price.amount"
    },
    {
        "entity": "model_sku",
        "path": "$.model_sku"
    }
]
