{
    "name": "scentsy-hf-room-spray",
    "desc": "Scentsy home fragrance room sprays transformation pipeline",
    "pyFiles": [
      {
        "pyFile": "gs://content_us/framework/stage/dependencies/us.zip"
      }
    ],
    "arguments": [
      {
        "pipeline": "gs://content_us/framework/stage/pipelines/product/product_transformation_pipeline.json"
      },
      {
        "var": "project_id=mercari-us-de,bucket_name=content_us,env=stage,app=scentsy,source=scentsy.com,category=home_fragrances,brand=scentsy,entity_template=scentsy_entity_template.json,entity_mapped_schema=scentsy_entity_schema.json,key_mapper_script=us.scentsy.transform.key_mapper,inputPath=content_us/raw/scentsy.com/home_fragrances/2019_12_04-07_05_14/room-sprays.jsonl"
      }
    ],
    "driver": {
      "cores": 1,
      "coreLimit": "1",
      "memory": "3g"
    },
    "executor": {
      "cores": 1,
      "instances": 3,
      "memory": "3g"
    },
    "pipeline_properties": {
      "modules": [
        {
          "type": "modules.transformation_module.TransformationModule",
          "properties": {
            "name": "transformer",
            "input": "raw",
            "output": "transformed",
            "partition": 1,
            "map_class": "us.$app.transform.pre_product_transformation_script.Mapper"
          }
        }
      ]
    }
  }