[
    {
        "entity": "system_category",
        "path": "$.category"
    },
    {
        "entity": "brand",
        "path": "$.brand"
    },
    {
        "entity":"model",
        "path":"$.model"
    },
    {
        "entity":"volume",
        "path":"$.volume"
    },
    {
        "entity":"length",
        "path":"$.length"
    },
    {
        "entity":"price",
        "path":"$.price.amount"
    },
    {
        "entity":"width",
        "path":"$.width"
    },
    {
        "entity":"height",
        "path":"$.height"
    },
    {
        "entity":"wash",
        "path":"$.wash"
    },
    {
        "entity":"model_sku",
        "path":"$.model_sku"
    }
]
