[
   
    {
        "entity":"system_category",
        "path":"$.category"
    },
    {
        "entity": "brand",
        "path": "$.brand"
    },
    {
        "entity":"model",
        "path":"$.model"
    },
    {
        "entity":"metal_color",
        "path":"$.metal_color"
    },
    {
        "entity":"msrp",
        "path":"$.msrp.amount"
    },
    {
        "entity":"color",
        "path":"$.color"
    },
    {
        "entity":"product_line",
        "path":"$.product_line"
    },
    
    {
        "entity":"theme",
        "path":"$.theme"
    },
   
    {
        "entity":"stone",
        "path":"$.stone"
    },
    {
        "entity":"depth",
        "path":"$.depth"
    },
    {
        "entity":"height",
        "path":"$.height"
    },
    {
        "entity":"width",
        "path":"$.width"
    },
    {
        "entity":"model_sku",
        "path":"$.model_sku"
    }

]