{
    "name": "adidas-jerseys-trans-pl",
    "desc": "Adidas - Jerseys - Adidas transformation pipeline",
    "pyFiles": [
        {
            "pyFile": "gs://content_us/framework/stage/dependencies/us.zip"
        }
    ],
    "arguments": [
        {
            "pipeline": "gs://content_us/framework/stage/pipelines/product/product_transformation_pipeline.json"
        },
        {
            "var":"project_id=mercari-us-de,bucket_name=content_us,env=stage,app=adidas,source=adidas.com,category=jerseys,brand=adidas,entity_template=adidas-jerseys-adidas_entity_template.json,entity_mapped_schema=adidas-jerseys-adidas_entity_schema.json,key_mapper_script=us.adidas.transform.jerseys.key_mapper,inputPath=content_us/raw/adidas.com/jerseys/adidas/2019-12-02_04_43_17/json/adidas.txt"
        }
    ],
    "driver": {
        "cores": 1,
        "coreLimit": "1",
        "memory": "3g"
    },
    "executor": {
        "cores": 1,
        "instances": 3,
        "memory": "3g"
    },
    "pipeline_properties": {
        "modules": [
          {
            "type": "modules.transformation_module.TransformationModule",
            "properties": {
              "name": "transformer",
              "input": "raw",
              "output": "transformed",
              "partition": 1,
              "map_class": "us.$app.transform.$category.pre_product_transformation_script.Mapper"
            }
          }
        ]
    }
}