{
  "name": "morphe-makeup-palettes-trans-pl",
  "desc": "Morphe Cosmetics Makeup palettes morphe.com transformation pipeline",
  "pyFiles": [
    {
      "pyFile": "gs://content_us/framework/stage/dependencies/us.zip"
    }
  ],
  "arguments": [
    {
      "pipeline": "gs://content_us/framework/stage/pipelines/product/product_transformation_pipeline.json"
    },
    {
      "var": "project_id=mercari-us-de,bucket_name=content_us,env=stage,app=morphe,source=morphe.com,category=makeup_palettes,brand=morphe,entity_template=makeup_palettes_entity_template.json,entity_mapped_schema=makeup_palettes_entity_schema.json,key_mapper_script=us.morphe.transform.key_mapper,inputPath=content_us/raw/morphe.com/makeup_palettes/morphe/2020-02-26_19_11_12/json/morphe.txt"
    }
  ],
  "driver": {
    "cores": 1,
    "coreLimit": "1",
    "memory": "3g"
  },
  "executor": {
    "cores": 1,
    "instances": 1,
    "memory": "3g"
  },
  "pipeline_properties": {
    "modules": [
      {
        "type": "modules.transformation_module.TransformationModule",
        "properties": {
          "name": "transformer",
          "input": "raw",
          "output": "transformed",
          "partition": 1,
          "map_class": "us.$app.transform.pre_product_transformation_script.Mapper"
        }
      }
    ]
  }
}
