[{
        "entity": "system_category",
        "path": "$.system_category"
    },
    {
        "entity": "brand",
        "path": "$.brand"
    },
    {
        "entity": "color",
        "path": "$.color"
    },
    {
        "entity": "material",
        "path": "$.material"
    }, 
    {
        "entity": "category",
        "path": "$.category"
    },
    {
        "entity": "sleeve_length",
        "path": "$.sleeve_length"
    },
    {
        "entity": "length",
        "path": "$.length"
    },
    {
        "entity": "chest_width",
        "path": "$.chest_width"
    },
    {
        "entity": "price",
        "path": "$.price.amount"
    },
    {
        "entity": "msrp",
        "path": "$.msrp.amount"
    },
    {
        "entity": "size",
        "path": "$.size"
    },
    {
        "entity": "description",
        "path": "$.description"
    },
    {
        "entity": "accents",
        "path": "$.accents"
    },
    {
        "entity": "neckline",
        "path": "$.neckline"
    },
    {
        "entity": "item_condition",
        "path": "$.item_condition"
    },
    {
        "entity": "pattern",
        "path": "$.pattern"
    }


]