[{
        "entity": "system_category",
        "path": "$.category"
    },
    {
        "entity": "brand",
        "path": "$.brand"
    },
    {
        "entity": "color",
        "path": "$.color"
    },
    {
        "entity": "material",
        "path": "$.material"
    },
    {
        "entity": "occasion",
        "path": "$.occasion"
    },
    {
        "entity": "price",
        "path": "$.price.amount"
    },
    {
        "entity": "chest_width",
        "path": "$.chest_width"
    },
    {
        "entity": "length",
        "path": "$.length"
    }
]