[
    {
        "entity": "system_category",
        "path": "$.category"
    },
    {
        "entity": "brand",
        "path": "$.brand"
    },
    {
        "entity":"model",
        "path":"$.model"
    },
    {
        "entity":"color",
        "path":"$.color",
        "separator":", "
    },
    {
        "entity":"msrp",
        "path":"$.msrp.amount"
    },
    {
        "entity":"model_sku",
        "path":"$.model_sku"
    },
    {
        "entity":"finish",
        "path":"$.finish",
        "separator":", "
    }
]
