{
  "name": "dji-drones-dji-trans-pl",
  "desc": "dji.com DJI Drones transformation pipeline",
  "pyFiles": [
    {
      "pyFile": "gs://content_us/framework/$env/dependencies/us.zip"
    }
  ],
  "arguments": [
    {
      "pipeline": "gs://content_us/framework/$env/pipelines/product/dedupe/product_transformation_pipeline.json"
    },
    {
      "var": "project_id=mercari-us-de,bucket_name=content_us,env=$env,app=dji,source=dji.com,category=drones,brand=dji,entity_template=drones_entity_template.json,entity_mapped_schema=drones_entity_schema.json,key_mapper_script=us.dji.transform.drones.key_mapper,inputPath=content_us/raw/dji.com/drones/dji/2020-11-24-11-19-31/json/dji.txt,dedupe_criteria_system_category=Drones,dedupe_criteria_brand=DJI,pre_product_dedupe_column=model+color,kg_raw_items_dedupe_column=model+color,merge_func=us.product.transform.merge_func.Merger"
    }
  ],
  "driver": {
    "cores": 1,
    "coreLimit": "1",
    "memory": "3g"
  },
  "executor": {
    "cores": 1,
    "instances": 1,
    "memory": "3g"
  },
  "pipeline_properties": {
    "modules": [
      {
        "type": "modules.transformation_module.TransformationModule",
        "properties": {
          "name": "transformer",
          "input": "raw",
          "output": "transformed",
          "partition": 1,
          "map_class": "us.$app.transform.$category.pre_product_transformation_script.Mapper"
        }
      }
    ]
  }
}
