{
  "name": "saskicollection-womens_shorts-saski-trans-pl",
  "desc": "saskicollection womens_shorts saski transformation pipeline",
  "pyFiles": [
    {
      "pyFile": "gs://content_us/framework/$env/dependencies/us.zip"
    }
  ],
  "arguments": [
    {
      "pipeline": "gs://content_us/framework/$env/pipelines/product/product_transformation_pipeline.json"
    },
    {
      "var": "project_id=mercari-us-de,bucket_name=content_us,env=$env,app=saskicollection,source=saskicollection.com,category=womens_shorts,brand=saski,entity_template=womens_shorts_entity_template.json,entity_mapped_schema=womens_shorts_entity_schema.json,key_mapper_script=us.saskicollection.transform.womens_shorts.key_mapper,inputPath=content_us/raw/saskicollection.com/womens_shorts/saski/2021-06-12_19_52_08/json/saskicollection.txt"
    }
  ],
  "driver": {
    "cores": 1,
    "coreLimit": "1",
    "memory": "3g"
  },
  "executor": {
    "cores": 1,
    "instances": 1,
    "memory": "3g"
  },
  "pipeline_properties": {
    "modules": [
      {
        "type": "modules.transformation_module.TransformationModule",
        "properties": {
          "name": "transformer",
          "input": "raw",
          "output": "transformed",
          "partition": 1,
          "map_class": "us.$app.transform.$category.pre_product_transformation_script.Mapper"
        }
      }
    ]
  }
}
