{
  "name": "bestbuy-sc-unlocked-trans-pl",
  "desc": "bestbuy sitemap crawl Unlocked Cellphones transformation pipeline",
  "pyFiles": [
    {
      "pyFile": "gs://content_us/framework/stage/dependencies/us.zip"
    }
  ],
  "arguments": [
    {
      "pipeline": "gs://content_us/framework/stage/pipelines/product/product_transformation_pipeline.json"
    },
    {
      "var": "project_id=mercari-us-de,bucket_name=content_us,env=stage,app=bestbuy,source=bestbuy.com,category=cell_phones_&_smartphones,brand=sitemap_crawl_unlocked_cellphone,entity_template=cell_phones_entity_template.json,entity_mapped_schema=cell_phones_entity_schema.json,key_mapper_script=us.product.transform.key_mapper,inputPath=content_us/raw/bestbuy.com/Cell_Phones_&_Smartphones/Unlocked_Cellphone/sitemap_crawl/2019_09_06-09_56_47/json/bestbuy.txt"
    }
  ],
  "driver": {
    "cores": 1,
    "coreLimit": "1",
    "memory": "3g"
  },
  "executor": {
    "cores": 1,
    "instances": 3,
    "memory": "3g"
  },
  "pipeline_properties": {
    "modules": [
      {
        "type": "modules.transformation_module.TransformationModule",
        "properties": {
          "name": "transformer",
          "input": "raw",
          "output": "transformed",
          "partition": 1,
          "map_class": "us.$app.transform.$category.pre_product_transformation_script.Mapper"
        }
      }
    ]
  }
}