{
    "name": "bestbuy-lc-vacuum-cordless-dyson-pl",
    "desc": "bestbuy Live Crawl Dyson in Vacuums & floor care Cordless transformation pipeline",
    "pyFiles": [
      {
        "pyFile": "gs://content_us/framework/prod/dependencies/us.zip"
      }
    ],
    "arguments": [
      {
        "pipeline": "gs://content_us/framework/prod/pipelines/product/product_transformation_pipeline.json"
      },
      {
        "var": "project_id=mercari-us-de,bucket_name=content_us,env=prod,app=bestbuy,source=bestbuy.com,category=vacuums_floor_care,brand=live_crawl_dyson,entity_template=vacuums_floor_care_cordless_entity_template.json,entity_mapped_schema=vacuums_floor_care_entity_schema.json,key_mapper_script=us.bestbuy.transform.vacuums_floor_care.key_mapper,inputPath=content_us/raw/bestbuy.com/vacuums_floor_care_cordless/dyson/2019-12-02_20_52_41/json/bestbuy.txt"
      }
    ],
    "driver": {
      "cores": 1,
      "coreLimit": "1",
      "memory": "3g"
    },
    "executor": {
      "cores": 1,
      "instances": 3,
      "memory": "3g"
    },
    "pipeline_properties": {
      "modules": [
        {
          "type": "modules.transformation_module.TransformationModule",
          "properties": {
            "name": "transformer",
            "input": "raw",
            "output": "transformed",
            "partition": 1,
            "map_class": "us.$app.transform.$category.pre_product_transformation_script.Mapper"
          }
        }
      ]
    }
  }