{
  "name": "bestbuy-lc-asus-laptops-pl",
  "desc": "bestbuy Live Crawl ASUS Laptops & Netbooks transformation pipeline",
  "pyFiles": [
    {
      "pyFile": "gs://content_us/framework/stage/dependencies/us.zip"
    }
  ],
  "arguments": [
    {
      "pipeline": "gs://content_us/framework/stage/pipelines/product/product_transformation_pipeline.json"
    },
    {
      "var": "project_id=mercari-us-de,bucket_name=content_us,env=stage,app=bestbuy,source=bestbuy.com,category=laptops_netbooks,brand=live_crawl_asus,entity_template=laptops_entity_template.json,entity_mapped_schema=laptops_entity_schema.json,key_mapper_script=us.bestbuy.transform.laptops_netbooks.asus.key_mapper,inputPath=content_us/raw/bestbuy.com/laptops_netbooks/asus/live_crawl/2020-06-17_13_51_16/json/bestbuy.txt"
    }
  ],
  "driver": {
    "cores": 1,
    "coreLimit": "1",
    "memory": "3g"
  },
  "executor": {
    "cores": 1,
    "instances": 3,
    "memory": "3g"
  },
  "pipeline_properties": {
    "modules": [
      {
        "type": "modules.transformation_module.TransformationModule",
        "properties": {
          "name": "transformer",
          "input": "raw",
          "output": "transformed",
          "partition": 1,
          "map_class": "us.$app.transform.$category.pre_product_transformation_script.Mapper"
        }
      }
    ]
  }
}