{
    "name": "bestbuy-lc-bh-beats-pl",
    "desc": "bestbuy Live Crawl Beats by Dr. Dre in Bluetooth Headphones transformation pipeline",
    "pyFiles": [
      {
        "pyFile": "gs://content_us/framework/stage/dependencies/us.zip"
      }
    ],
    "arguments": [
      {
        "pipeline": "gs://content_us/framework/stage/pipelines/product/product_transformation_pipeline.json"
      },
      {
        "var": "project_id=mercari-us-de,bucket_name=content_us,env=stage,app=bestbuy,source=bestbuy.com,category=bluetooth_headphones,brand=live_crawl_beats_by_dr_dre,entity_template=bluetooth_headphones_entity_template.json,entity_mapped_schema=bluetooth_headphones_entity_schema.json,key_mapper_script=us.bestbuy.transform.bluetooth_headphones.beats_by_dre.key_mapper,inputPath=content_us/raw/bestbuy.com/bluetooth_headphones/beats_by_dr._dre/2019-12-12_23_53_08/json/bestbuy.txt"
      }
    ],
    "driver": {
      "cores": 1,
      "coreLimit": "1",
      "memory": "3g"
    },
    "executor": {
      "cores": 1,
      "instances": 3,
      "memory": "3g"
    },
    "pipeline_properties": {
      "modules": [
        {
          "type": "modules.transformation_module.TransformationModule",
          "properties": {
            "name": "transformer",
            "input": "raw",
            "output": "transformed",
            "partition": 1,
            "map_class": "us.$app.transform.$category.beats_by_dre.pre_product_transformation_script.Mapper"
          }
        }
      ]
    }
  }