{
    "name": "bestbuy live crawl streaming devices",
    "desc": "bestbuy Live Crawl Streaming Devices Amazon transformation pipeline",
    "pyFiles": [
      {
        "pyFile": "gs://content_us/framework/stage/dependencies/us.zip"
      }
    ],
    "arguments": [
      {
        "pipeline": "gs://content_us/framework/stage/pipelines/product/product_transformation_pipeline.json"
      },
      {
        "var": "project_id=mercari-us-de,bucket_name=content_us,env=stage,app=bestbuy,source=bestbuy.com,category=streaming_devices,brand=amazon,entity_template=streaming_devices_entity_template.json,entity_mapped_schema=streaming_devices_entity_schema.json,key_mapper_script=us.bestbuy.transform.streaming_devices.key_mapper,inputPath=content_us/raw/bestbuy.com/streaming_devices/amazon/live_crawl/2020-01-13_18_09_23/json/bestbuy.txt"
      }
    ],
    "driver": {
      "cores": 1,
      "coreLimit": "1",
      "memory": "3g"
    },
    "executor": {
      "cores": 1,
      "instances": 3,
      "memory": "3g"
    },
    "pipeline_properties": {
      "modules": [
        {
          "type": "modules.transformation_module.TransformationModule",
          "properties": {
            "name": "transformer",
            "input": "raw",
            "output": "transformed",
            "partition": 1,
            "map_class": "us.$app.transform.$category.pre_product_transformation_script.Mapper"
          }
        }
      ]
    }
  }