{
    "name": "bestbuy-lc-dslr-trans-pl",
    "desc": "bestbuy Live Crawl DSLR Cameras transformation pipeline",
    "pyFiles": [
      {
        "pyFile": "gs://content_us/framework/prod/dependencies/us.zip"
      }
    ],
    "arguments": [
      {
        "pipeline": "gs://content_us/framework/prod/pipelines/product/product_transformation_pipeline.json"
      },
      {
        "var": "project_id=mercari-us-de,bucket_name=content_us,env=prod,app=bestbuy,source=bestbuy.com,category=digital_cameras,brand=live_crawl_dslr_camera,entity_template=digital_cameras_entity_template.json,entity_mapped_schema=digital_cameras_entity_schema.json,key_mapper_script=us.product.transform.key_mapper,inputPath=content_us/raw/bestbuy.com/digital_cameras/dslr_camera/live_crawl/2019_09_18-10_17_57/json/bestbuy.txt"
      }
    ],
    "driver": {
      "cores": 1,
      "coreLimit": "1",
      "memory": "3g"
    },
    "executor": {
      "cores": 1,
      "instances": 3,
      "memory": "3g"
    },
    "pipeline_properties": {
      "modules": [
        {
          "type": "modules.transformation_module.TransformationModule",
          "properties": {
            "name": "transformer",
            "input": "raw",
            "output": "transformed",
            "partition": 1,
            "map_class": "us.$app.transform.$category.pre_product_transformation_script.Mapper"
          }
        }
      ]
    }
  }