{
    "name": "bestbuy-lc-camera-lenses-canon-pl",
    "desc": "bestbuy Live Crawl Canon in Camera Lenses transformation pipeline",
    "pyFiles": [
      {
        "pyFile": "gs://content_us/framework/stage/dependencies/us.zip"
      }
    ],
    "arguments": [
      {
        "pipeline": "gs://content_us/framework/stage/pipelines/product/product_transformation_pipeline.json"
      },
      {
        "var": "project_id=mercari-us-de,bucket_name=content_us,env=stage,app=bestbuy,source=bestbuy.com,category=camera_lenses,brand=live_crawl_canon,entity_template=camera_lenses_entity_template.json,entity_mapped_schema=camera_lenses_entity_schema.json,key_mapper_script=us.bestbuy.transform.camera_lenses.key_mapper,inputPath=content_us/raw/bestbuy.com/camera_lenses/canon/2019-12-03_10_44_49/json/bestbuy.txt"
      }
    ],
    "driver": {
      "cores": 1,
      "coreLimit": "1",
      "memory": "3g"
    },
    "executor": {
      "cores": 1,
      "instances": 3,
      "memory": "3g"
    },
    "pipeline_properties": {
      "modules": [
        {
          "type": "modules.transformation_module.TransformationModule",
          "properties": {
            "name": "transformer",
            "input": "raw",
            "output": "transformed",
            "partition": 1,
            "map_class": "us.$app.transform.$category.pre_product_transformation_script.Mapper"
          }
        }
      ]
    }
  }