{
    "name": "bestbuy-sc-videogame accessories-pl",
    "desc": "bestbuy Sitemap Crawl Video Game Accessories Nintendo transformation pipeline",
    "pyFiles": [
      {
        "pyFile": "gs://content_us/framework/stage/dependencies/us.zip"
      }
    ],
    "arguments": [
      {
        "pipeline": "gs://content_us/framework/stage/pipelines/product/product_transformation_pipeline.json"
      },
      {
        "var": "project_id=mercari-us-de,bucket_name=content_us,env=stage,app=bestbuy,source=bestbuy.com,category=video_game_accessories,brand=nintendo_sitemap_crawl,entity_template=videogames_accessories_entity_template.json,entity_mapped_schema=videogames_accessories_entity_schema.json,key_mapper_script=us.bestbuy.transform.video_game_accessories.key_mapper,inputPath=content_us/raw/bestbuy.com/video_game_accessories/nintendo/sitemap_crawl/2019-12-31_11_17_20/json/bestbuy.txt"
      }
    ],
    "driver": {
      "cores": 1,
      "coreLimit": "1",
      "memory": "3g"
    },
    "executor": {
      "cores": 1,
      "instances": 3,
      "memory": "3g"
    },
    "pipeline_properties": {
      "modules": [
        {
          "type": "modules.transformation_module.TransformationModule",
          "properties": {
            "name": "transformer",
            "input": "raw",
            "output": "transformed",
            "partition": 1,
            "map_class": "us.$app.transform.$category.pre_product_transformation_script.Mapper"
          }
        }
      ]
    }
  }