{
    "name": "bestbuy-vrheadsets-oculus-livecrawl-pl",
    "desc": "bestbuy Live Crawl VR headsets Oculus transformation pipeline",
    "pyFiles": [
      {
        "pyFile": "gs://content_us/framework/stage/dependencies/us.zip"
      }
    ],
    "arguments": [
      {
        "pipeline": "gs://content_us/framework/stage/pipelines/product/product_transformation_pipeline.json"
      },
      {
        "var": "project_id=mercari-us-de,bucket_name=content_us,env=stage,app=bestbuy,source=bestbuy.com,category=vr_headsets,brand=oculus,entity_template=vrheadsets_oculus_entity_template.json,entity_mapped_schema=vrheadsets_oculus_entity_schema.json,key_mapper_script=us.bestbuy.transform.vr_headsets.oculus.key_mapper,inputPath=content_us/raw/bestbuy.com/vr_headsets/oculus/live_crawl/2020-02-18_13_26_32/json/bestbuy.txt"
      }
    ],
    "driver": {
      "cores": 1,
      "coreLimit": "1",
      "memory": "3g"
    },
    "executor": {
      "cores": 1,
      "instances": 3,
      "memory": "3g"
    },
    "pipeline_properties": {
      "modules": [
        {
          "type": "modules.transformation_module.TransformationModule",
          "properties": {
            "name": "transformer",
            "input": "raw",
            "output": "transformed",
            "partition": 1,
            "map_class": "us.$app.transform.$category.$brand.pre_product_transformation_script.Mapper"
          }
        }
      ]
    }
  }