[
    {
        "entity": "system_category",
        "path": "$.category"
    },
    {
        "entity": "brand",
        "path": "$.brand"
    },
    {
        "entity":"model",
        "path":"$.model"
    },
    {
        "entity":"product_line",
        "path":"$.product_line"
    },
    {
        "entity":"series",
        "path":"$.series"
    },
    {
        "entity":"price",
        "path":"$.price.amount"
    },
    {
        "entity":"release_date",
        "path":"$.release_date"
    },
    {
        "entity":"upc",
        "path":"$.upc"
    }
]
