[
    {
        "entity": "system_category",
        "path": "$.category"
    },
    {
        "entity": "brand",
        "path": "$.brand"
    },
    {
        "entity":"product_type",
        "path":"$.product_type"
    },
    {
        "entity":"headphone_jack",
        "path":"$.headphone_jack"
    },
    {
        "entity":"color",
        "path":"$.color"
    }
]
