{
  "definitions": {},
  "$schema": "http://json-schema.org/draft-07/schema#",
  "$id": "http://example.com/root.json",
  "type": "object",
  "title": "The Root Schema",
  "required": [
    "item_id",
    "entities"
  ],
  "properties": {
    "item_id": {
      "$id": "#/properties/item_id",
      "type": "string",
      "title": "The Item_id Schema",
      "default": "",
      "examples": [
        "a595aa275b8d3982facbeab87e80578a1493d2ac"
      ],
      "pattern": "^(.*)$"
    },
    "entities": {
      "$id": "#/properties/entities",
      "type": "array",
      "title": "The Entities Schema",
      "items": [{
        "type": "object",
        "required": [
          "system_category"
        ],
        "properties": {
          "system_category": {
            "type": "array",
            "items": {
              "type": "string",
              "examples": [
                "Pants, tights, leggings"
              ],
              "pattern": "^(.*)$",
              "minLength": 1
            }
          }
        }
      },
        {
        "type": "object",
        "required": [
          "brand"
        ],
        "properties": {
          "brand": {
            "type": "array",
            "items": {
              "type": "string",
              "examples": [
                "Alphalete"
              ],
              "pattern": "^(.*)$",
              "minLength": 1
            }
          }
        }
      },{
        "type": "object",
        "required": [
          "product_type"
        ],
        "properties": {
          "product_type": {
            "type": "array",
            "items": {
              "type": "string",
              "examples": [
                "Black"
              ],
              "pattern": "^(.*)$",
              "minLength": 1
            }
          }
        }
      },
      {
        "type": "object",
        "required": [
          "model"
        ],
        "properties": {
          "model": {
            "type": "array",
            "items": {
              "type": "string",
              "examples": [
                "Aero Legging"
              ],
              "pattern": "^(.*)$",
              "minLength": 1
            }
          }
        }
      }]
    }
  }
}