[
    {
        "entity": "system_category",
        "path": "$.category"
    },
    {
        "entity": "brand",
        "path": "$.brand"
    },
    {
        "entity": "model",
        "path": "$.model"
    },
    {
        "entity": "color",
        "path": "$.color"
    },
    {
        "entity": "inseam",
        "path": "$.inseam"
    },
    {
        "entity": "msrp",
        "path": "$.price.amount"
    },
    {
        "entity": "rise",
        "path": "$.rise"
    },
    {
        "entity": "activity",
        "path": "$.activity"
    },
    {
        "entity": "size_womens",
        "path": "$.size_womens",
        "separator": ","
    },
    {
        "entity": "material",
        "path": "$.material"
    }
]