{
   "name":"airpods-transformation-pipeline",
   "desc":"Airpods transformation pipeline",
   "pyFiles":[
      {
         "pyFile":"gs://content_us/framework/prod/dependencies/us.zip"
      }
   ],
   "arguments":[
      {
         "pipeline": "gs://content_us/framework/prod/pipelines/product/product_transformation_pipeline.json"
      },
      {
         "var": "project_id=mercari-us-de,bucket_name=content_us,env=prod,app=apple,source=apple.com,category=bluetooth_headphones,brand=airpods,entity_template=airpods_entity_template.json,entity_mapped_schema=airpods_entity_schema.json,key_mapper_script=us.apple.transform.key_mapper,inputPath=content_us/raw/apple/airpods.jsonl"
      }
   ],
   "driver":{
      "cores":1,
      "coreLimit":"1",
      "memory":"3g"
   },
   "executor":{
      "cores":1,
      "instances":1,
      "memory":"3g"
   }
}
