{
   "name":"appletv-transformation-pipeline",
   "desc":"Apple TV transformation pipeline",
   "pyFiles":[
      {
         "pyFile": "gs://content_us/framework/prod/dependencies/us.zip"
      }
   ],
   "arguments":[
      {
         "pipeline": "gs://content_us/framework/prod/pipelines/product/product_transformation_pipeline.json"
      },
      {
         "var": "project_id=mercari-us-de,bucket_name=content_us,env=prod,app=apple,source=apple.com,category=streaming_devices,brand=apple_tv,entity_template=apple_tv_entity_template.json,entity_mapped_schema=apple_tv_entity_schema.json,key_mapper_script=us.product.transform.key_mapper,inputPath=content_us/framework/prod/data/apps/apple/crawl_data/apple_tv.jsonl"
      }
   ],
   "driver":{
      "cores":1,
      "coreLimit":"1",
      "memory":"3g"
   },
   "executor":{
      "cores":1,
      "instances":3,
      "memory":"3g"
   }
}
