{
   "name":"homepod-transformation-pipeline",
   "desc":"Homepod transformation pipeline",
   "pyFiles":[
      {
         "pyFile":"gs://content_us/framework/prod/dependencies/us.zip"
      }
   ],
   "files":[

   ],
   "arguments":[
      {
         "pipeline":"gs://content_us/framework/prod/pipelines/apple/apple_transformation_pipeline.json"
      },
      {
         "var":"project=mercari-us-de,bucket_name=content_us,env=prod,app=homepod,entity_template=homepod_entity_template.json,inputPath=content_us/raw/apple/homepod.jsonl"
      }
   ],
   "driver":{
      "cores":1,
      "coreLimit":"1",
      "memory":"3g"
   },
   "executor":{
      "cores":1,
      "instances":1,
      "memory":"3g"
   }
}
