{
    "name": "icecate_pipeline",
    "description": "strips the json",
    "readers" : [
        {
            "type": "modules.readers.text_input_module.TextInputModule",
            "properties": {
                "name": "text_input",
                "output": "raw",
                "headers": "false",
                "local": "/tmp",
                "read_format": "text",
                "path": "$inputPath/data/input/apps/icecat/smartphones-seed-urls.txt"
            }
        }
    ],
    "modules": [
        {
            "type": "modules.json_scrape_module.JsonScrapeModule",
            "properties": {
                "name": "jsonscraper",
                "input": "raw",
                "output": "extracted",
                "partition": 2,
                "map_class": "transformations.$app.scrape.Scraper"
            }
        }
    ],
    "writers" : [
        {
            "type": "modules.writers.text_output_module.TextOutputModule",
            "properties": {
                "name": "text_output",
                "input": "extracted",
                "partition": 1,
                "local": "/tmp",
                "write_format": "text",
                "path": "$outputPath/data/output/apps/$app/final/",
                "header": "false"
            }
        }
    ],
    "reporters" : [
        {
            "type": "reporters.console_reporter.ConsoleReporter"
        }
    ]

}