{
    "name": "icecat-item-entity-resolution",
    "description": "Icecat Entity Resolution",
    "readers" : [
        {
            "type": "modules.readers.gcs_input_module.GcsInputModule",
            "properties": {
                "name": "inout",
                "output": "entity_mapped",
                "read_format": "text",
                "path": "imaginea_content_us/framework/dev/data/apps/icecat/entity_map_transformation/output/2019_05_30-07_40_12/gcs_output/part-*.txt",
                "headers": "false"
            }
        }
    ],
    "modules": [
        {
            "type": "modules.transformation_module.TransformationModule",
            "properties": {
                "name": "transformer",
                "input": "entity_mapped",
                "output": "transformed",
                "map_class": "transformations.$app.item_entity_resolution.Mapper"
            }
        }
    ],
    "writers" : [
        {
            "type": "modules.writers.gcs_output_module.GcsOutputModule",
            "properties": {
                "name": "entity_resolved",
                "input": "transformed",
                "partition": 1,
                "local": "/tmp",
                "write_format": "text",
                "path": "imaginea_content_us/framework/dev/data/apps/icecat/item_entity_resolution/output/",
                "header": "false"
            }
        }
    ],
    "reporters" : [
        {
            "type": "reporters.console_reporter.ConsoleReporter"
        },
        {
            "type": "reporters.gcs_reporter.GcsReporter",
            "properties": {
                "path": "imaginea_content_us/framework/dev/data/apps/icecat/item_entity_resolution/output/"
            }
        }
    ]

}