{
  "name": "skin care products mary kay-trans-pl",
  "desc": "Skin Care Products Mary Kay transformation pipeline",
  "pyFiles": [
    {
      "pyFile": "gs://content_us/framework/stage/dependencies/us.zip"
    }
  ],
  "arguments": [
    {
      "pipeline": "gs://content_us/framework/stage/pipelines/product/product_transformation_pipeline.json"
    },
    {
      "var": "project_id=mercari-us-de,bucket_name=content_us,env=stage,app=marykay,source=marykay.com,category=skin_care_products,brand=mary_kay,entity_template=skin_care_products_entity_template.json,entity_mapped_schema=skin_care_products_entity_schema.json,key_mapper_script=us.marykay.transform.skin_care_products.mary_kay.key_mapper,inputPath=content_us/raw/marykay.com/skin_care_products/mary_kay/2020_02_19_15_34_11/json/marykay.txt"
    }
  ],
  "driver": {
    "cores": 1,
    "coreLimit": "1",
    "memory": "3g"
  },
  "executor": {
    "cores": 1,
    "instances": 1,
    "memory": "3g"
  },
  "pipeline_properties": {
    "modules": [
      {
        "type": "modules.transformation_module.TransformationModule",
        "properties": {
          "name": "transformer",
          "input": "raw",
          "output": "transformed",
          "partition": 1,
          "map_class": "us.$app.transform.$category.$brand.pre_product_transformation_script.Mapper"
        }
      }
    ]
  }
}
