[
   
    {
        "entity":"system_category",
        "path":"$.category"
    },
    {
        "entity": "brand",
        "path": "$.brand"
    },
    {
        "entity":"product_family",
        "path":"$.product_family"
    },
    {
        "entity":"product_type",
        "path":"$.product_type",
        "separator":", "
        
    },
    {
        "entity":"model",
        "path":"$.model"
    },
    {
        "entity":"product_line",
        "path":"$.product_line",
        "separator":", "
    },
    {
        "entity":"description",
        "path":"$.description"
    },
    {
        "entity":"model_sku",
        "path":"$.model_sku"
    },
    {
        "entity":"msrp",
        "path":"$.msrp.amount"
    }

]