{
    "name": "zumiez-converse-trans-pipeline",
    "desc": "Zumiez Converse Women's Athletic Shoes transformation pipeline",
    "pyFiles": [
        {
            "pyFile": "gs://content_us/framework/prod/dependencies/us.zip"
        }
    ],
    "arguments": [
        {
            "pipeline": "gs://content_us/framework/prod/pipelines/product/product_transformation_pipeline.json"
        },
        {
            "var":"project_id=mercari-us-de,bucket_name=content_us,env=prod,app=zumiez,source=zumiez.com,category=womens_athletic_shoes,brand=converse,entity_template=zumiez_entity_template.json,entity_mapped_schema=zumiez_entity_schema.json,key_mapper_script=us.product.transform.key_mapper,inputPath=content_us/raw/zumiez.com/Women_Shoes_Fashion_Sneakers/converse/2019_09_19-17_13_08/json/zumiez.txt"
        }
    ],
    "driver": {
        "cores": 1,
        "coreLimit": "1",
        "memory": "3g"
    },
    "executor": {
        "cores": 1,
        "instances": 3,
        "memory": "3g"
    }
}