{
    "name": "tradesy-backpacks-pink-transformation-pipeline",
    "desc": "tradesy Backpacks Pink transformation pipeline",
    "pyFiles": [{
        "pyFile": "gs://content_us/framework/prod/dependencies/us.zip"
    }],
    "arguments": [{
            "pipeline": "gs://content_us/framework/prod/pipelines/product/product_transformation_pipeline.json"
        },
        {
            "var": "project_id=mercari-us-de,bucket_name=content_us,env=prod,app=tradesy,source=tradesy.com,category=backpacks,brand=pink,entity_template=backpacks_pink_entity_template.json,entity_mapped_schema=backpacks_pink_entity_schema.json,key_mapper_script=us.tradesy.transform.backpacks.pink.key_mapper,inputPath=content_us/raw/tradesy.com/backpacks/pink/2020-02-11_16_17_29/json/tradesy.txt"
        }
    ],
    "driver": {
        "cores": 1,
        "coreLimit": "1",
        "memory": "3g"
    },
    "executor": {
        "cores": 1,
        "instances": 1,
        "memory": "3g"
    },
    "pipeline_properties": {
        "modules": [{
            "type": "modules.transformation_module.TransformationModule",
            "properties": {
                "name": "transformer",
                "input": "raw",
                "output": "transformed",
                "partition": 1,
                "map_class": "us.$app.transform.$category.$brand.pre_product_transformation_script.Mapper"
            }
        }]
    }
}