{
    "name": "tradesy-transformation-pipeline",
    "desc": "tradesy transformation pipeline",
    "pyFiles": [
        {
            "pyFile": "gs://content_us/framework/prod/dependencies/us.zip"
        }
    ],
    "arguments": [
        {
            "pipeline": "gs://content_us/framework/prod/pipelines/product/product_transformation_pipeline.json"
        },
        {
            "var":"project_id=mercari-us-de,bucket_name=content_us,env=prod,app=tradesy,source=tradesy.com,category=shoulder_bags,brand=coach,entity_template=tradesy_entity_template.json,entity_mapped_schema=tradesy_entity_schema.json,key_mapper_script=us.product.transform.key_mapper,inputPath=content_us/raw/tradesy.com/shoulder_bags/coach/2019-09-19_14_05_14/json/tradesy.txt"
        }
    ],
    "driver": {
        "cores": 1,
        "coreLimit": "1",
        "memory": "3g"
    },
    "executor": {
        "cores": 1,
        "instances": 1,
        "memory": "3g"
    }
}
