{
    "name": "tradesy-transformation-pipeline",
    "desc": "tradesy transformation pipeline",
    "pyFiles": [
        {
            "pyFile": "gs://imaginea_content_us/framework/dev/dependencies/us.zip"
        }
    ],
    "arguments": [
        {
            "pipeline": "gs://imaginea_content_us/framework/dev/pipelines/product/product_transformation_pipeline.json"
        },
        {
            "var":"project_id=mercari-us-imaginea-dev,bucket_name=imaginea_content_us,env=dev,app=tradesy,source=tradesy.com,category=shoulder_bags,brand=micheal_kors,entity_template=tradesy_entity_template.json,inputPath=content_us/raw/tradesy.com/shoulder_bags/micheal_kors/2019-07-17_01_39_09/json/tradesy.txt"
        }
    ],
    "driver": {
        "cores": 1,
        "coreLimit": "1",
        "memory": "3g"
    },
    "executor": {
        "cores": 1,
        "instances": 1,
        "memory": "3g"
    }
}
