{
  "name": "amazon-strength-training-equipment-cap-barbell-trans-pl",
  "desc": "CAP Barbell Strength Training Amazon.com transformation pipeline",
  "pyFiles": [
    {
      "pyFile": "gs://content_us/framework/stage/dependencies/us.zip"
    }
  ],
  "arguments": [
    {
      "pipeline": "gs://content_us/framework/stage/pipelines/product/product_transformation_pipeline.json"
    },
    {
      "var": "project_id=mercari-us-de,bucket_name=content_us,env=stage,app=amazon,source=amazon.com,category=strength_training_equipment,brand=cap_barbell,entity_template=strength_training_equipment_cap_barbell_entity_template.json,entity_mapped_schema=strength_training_equipment_cap_barbell_entity_schema.json,key_mapper_script=us.amazon.transform.strength_training_equipment.cap_barbell.key_mapper,inputPath=content_us/raw/amazon.com/strength_training_equipment/cap_barbell/2020-09-14_18_23_01/json/amazon.txt"
    }
  ],
  "driver": {
    "cores": 1,
    "coreLimit": "1",
    "memory": "3g"
  },
  "executor": {
    "cores": 1,
    "instances": 1,
    "memory": "3g"
  },
  "pipeline_properties": {
    "modules": [
      {
        "type": "modules.transformation_module.TransformationModule",
        "properties": {
          "name": "transformer",
          "input": "raw",
          "output": "transformed",
          "partition": 1,
          "map_class": "us.$app.transform.$category.$brand.pre_product_transformation_script.Mapper"
        }
      }
    ]
  }
}
