{
  "name": "tools-workshop-equipment-milwaukee-trans-pl",
  "desc": "Milwaukee Tools & equipment acehardware.com transformation pipeline",
  "pyFiles": [
    {
      "pyFile": "gs://content_us/framework/stage/dependencies/us.zip"
    }
  ],
  "arguments": [
    {
      "pipeline": "gs://content_us/framework/stage/pipelines/product/product_transformation_pipeline.json"
    },
    {
      "var": "project_id=mercari-us-de,bucket_name=content_us,env=stage,app=acehardware,source=acehardware.com,category=tools_workshop_equipment,brand=milwaukee,entity_template=tools_workshop_equipment_milwaukee_entity_template.json,entity_mapped_schema=tools_workshop_equipment_milwaukee_entity_schema.json,key_mapper_script=us.acehardware.transform.tools_workshop_equipment.milwaukee.key_mapper,inputPath=content_us/raw/acehardware.com/tools_workshop_equipment/milwaukee/2020-05-26_19_17_18/json/acehardware.txt"
    }
  ],
  "driver": {
    "cores": 1,
    "coreLimit": "1",
    "memory": "3g"
  },
  "executor": {
    "cores": 1,
    "instances": 1,
    "memory": "3g"
  },
  "pipeline_properties": {
    "modules": [
      {
        "type": "modules.transformation_module.TransformationModule",
        "properties": {
          "name": "transformer",
          "input": "raw",
          "output": "transformed",
          "partition": 1,
          "map_class": "us.$app.transform.$category.$brand.pre_product_transformation_script.Mapper"
        }
      }
    ]
  }
}
