[
    {
        "entity": "system_category",
        "path": "$.category"
    },
    {
        "entity": "brand",
        "path": "$.brand"
    },
    {
        "entity":"style",
        "path":"$.style"
    },
    {
        "entity":"color",
        "path":"$.color"
    },
    {
        "entity":"material",
        "path":"$.material"
    },
    {
        "entity":"model",
        "path":"$.model"
    },
    {
        "entity":"rise",
        "path":"$.rise"
    },
    {
        "entity":"product_family",
        "path":"$.product_family"
    },
    {
        "entity":"msrp",
        "path":"$.msrp.amount"
    },
    {
        "entity":"description",
        "path":"$.description"
    }
]
