{
  "definitions": {},
  "$schema": "http://json-schema.org/draft-07/schema#",
  "$id": "http://example.com/root.json",
  "type": "object",
  "title": "The Root Schema",
  "required": [
    "item_id",
    "entities",
    "source"
  ],
  "properties": {
    "item_id": {
      "$id": "#/properties/item_id",
      "type": "string",
      "title": "The Item_id Schema",
      "default": "",
      "minLength": 1,
      "examples": [
        "guid"
      ],
      "pattern": "^(.*)$"
    },
    "entities": {
      "$id": "#/properties/entities",
      "type": "array",
      "title": "The Entities Schema",
      "items": {
        "$id": "#/properties/entities/items",
        "type": "object",
        "title": "The Items Schema",
        "required": [
          "entity",
          "attribute"
        ],
        "properties": {
          "entity": {
            "$id": "#/properties/entities/items/properties/entity",
            "type": "string",
            "title": "The Entity Schema",
            "default": "",
            "minLength": 1,
            "examples": [
              "{network resolved guid}"
            ],
            "pattern": "^(.*)$"
          },
          "attribute": {
            "$id": "#/properties/entities/items/properties/attribute",
            "type": "array",
            "title": "The Attribute Schema",
            "items": {
              "$id": "#/properties/entities/items/properties/attribute/items",
              "type": "object",
              "title": "The Items Schema",
              "required": [
                "id",
                "value"
              ],
              "properties": {
                "id": {
                  "$id": "#/properties/entities/items/properties/attribute/items/properties/id",
                  "type": "string",
                  "title": "The Id Schema",
                  "default": "",
                  "examples": [
                    "51e9137e-a951-4296-bce6-7894ac8a216d"
                  ],
                  "pattern": "^(.*)$"
                },
                "value": {
                  "$id": "#/properties/entities/items/properties/attribute/items/properties/value",
                  "type": "string",
                  "title": "The Value Schema",
                  "default": "",
                  "examples": [
                    "Android"
                  ],
                  "pattern": "^(.*)$"
                }
              }
            }
          }
        }
      }
    },
    "source": {
      "$id": "#/properties/source",
      "type": "string",
      "title": "The Source Schema",
      "default": "",
      "examples": [
        "icecat"
      ],
      "pattern": "^(.*)$"
    }
  }
}