{
  "definitions": {},
  "$schema": "http://json-schema.org/draft-07/schema#",
  "$id": "https://live.icecat.biz/api/?shopname=&lang=us&content=&app_key=&icecat_id=",
  "type": "object",
  "title": "The Root Schema",
  "required": [
    "msg",
    "data"
  ],
  "properties": {
    "msg": {
      "$id": "#/properties/msg",
      "type": "string",
      "title": "The Msg Schema",
      "default": "",
      "examples": [
        "OK"
      ],
      "pattern": "^(.*)$"
    },
    "data": {
      "$id": "#/properties/data",
      "type": "object",
      "title": "The Data Schema",
      "required": [
        "GeneralInfo",
        "FeaturesGroups"
      ],
      "properties": {
        "GeneralInfo": {
          "$id": "#/properties/data/properties/GeneralInfo",
          "type": "object",
          "title": "The Generalinfo Schema",
          "required": [
            "IcecatId",
            "Title",
            "Brand",
            "ProductName",
            "GTIN",
            "Category",
            "SummaryDescription"
          ],
          "properties": {
            "IcecatId": {
              "$id": "#/properties/data/properties/GeneralInfo/properties/IcecatId",
              "type": "string",
              "title": "The Icecatid Schema",
              "default": "",
              "examples": [
                "8171438"
              ],
              "pattern": "^(.*)$"
            },
            "Title": {
              "$id": "#/properties/data/properties/GeneralInfo/properties/Title",
              "type": "string",
              "title": "The Title Schema",
              "default": "",
              "examples": [
                "Chief MCD6000 flat panel ceiling mount Black"
              ],
              "pattern": "^(.*)$"
            },
            "Brand": {
              "$id": "#/properties/data/properties/GeneralInfo/properties/Brand",
              "type": "string",
              "title": "The Brand Schema",
              "default": "",
              "examples": [
                "Chief"
              ],
              "pattern": "^(.*)$"
            },
            "ProductName": {
              "$id": "#/properties/data/properties/GeneralInfo/properties/ProductName",
              "type": "string",
              "title": "The Productname Schema",
              "default": "",
              "examples": [
                "MCD6000"
              ],
              "pattern": "^(.*)$"
            },
            "GTIN": {
              "$id": "#/properties/data/properties/GeneralInfo/properties/GTIN",
              "type": "array",
              "title": "The Gtin Schema"
            },
            "Category": {
              "$id": "#/properties/data/properties/GeneralInfo/properties/Category",
              "type": "object",
              "title": "The Category Schema",
              "required": [
                "Name"
              ],
              "properties": {
                "Name": {
                  "$id": "#/properties/data/properties/GeneralInfo/properties/Category/properties/Name",
                  "type": "object",
                  "title": "The Name Schema",
                  "required": [
                    "Value"
                  ],
                  "properties": {
                    "Value": {
                      "$id": "#/properties/data/properties/GeneralInfo/properties/Category/properties/Name/properties/Value",
                      "type": "string",
                      "title": "The Value Schema",
                      "default": "",
                      "examples": [
                        "Flat Panel Ceiling Mounts"
                      ],
                      "pattern": "^(.*)$"
                    }
                  }
                }
              }
            },
            "SummaryDescription": {
              "$id": "#/properties/data/properties/GeneralInfo/properties/SummaryDescription",
              "type": "object",
              "title": "The Summarydescription Schema",
              "required": [
                "LongSummaryDescription"
              ],
              "properties": {
                "LongSummaryDescription": {
                  "$id": "#/properties/data/properties/GeneralInfo/properties/SummaryDescription/properties/LongSummaryDescription",
                  "type": "string",
                  "title": "The Longsummarydescription Schema",
                  "default": "",
                  "examples": [
                    "Chief MCD6000. Maximum weight capacity: 125 lbs (56.7 kg). Tilt angle range: -20 - 5°. Product color: Black"
                  ],
                  "pattern": "^(.*)$"
                }
              }
            }
          }
        },
        "FeaturesGroups": {
          "$id": "#/properties/data/properties/FeaturesGroups",
          "type": "array",
          "title": "The Featuresgroups Schema"
        }
      }
    }
  }
}