{
    "name": "carolinashoe-womens_shoes-carolina-trans-pl",
    "desc": "carolinashoe womens_shoes carolina transformation pipeline",
    "pyFiles": [
      {
        "pyFile": "gs://content_us/framework/$env/dependencies/us.zip"
      }
    ],
    "arguments": [
      {
        "pipeline": "gs://content_us/framework/$env/pipelines/product/product_transformation_pipeline.json"
      },
      {
        "var": "project_id=mercari-us-de,bucket_name=content_us,env=$env,app=carolinashoe,source=carolinashoe.com,category=womens_shoes,brand=carolina,entity_template=womens_shoes_entity_template.json,entity_mapped_schema=womens_shoes_entity_schema.json,key_mapper_script=us.carolinashoe.transform.womens_shoes.key_mapper,inputPath=content_us/raw/carolinashoe.com/womens_shoes/carolina/2021-06-10_14_11_39/json/carolinashoe.txt"
      }
    ],
    "driver": {
      "cores": 1,
      "coreLimit": "1",
      "memory": "3g"
    },
    "executor": {
      "cores": 1,
      "instances": 1,
      "memory": "3g"
    },
    "pipeline_properties": {
      "modules": [
        {
          "type": "modules.transformation_module.TransformationModule",
          "properties": {
            "name": "transformer",
            "input": "raw",
            "output": "transformed",
            "partition": 1,
            "map_class": "us.$app.transform.$category.pre_product_transformation_script.Mapper"
          }
        }
      ]
    }
  }
  