{
    "name": "toywiz-hasbro accessories-transformation-pipeline",
    "desc": "Toywiz Action Figures  Accessories Hasbro transformation pipeline",
    "pyFiles": [{
        "pyFile": "gs://content_us/framework/prod/dependencies/us.zip"
    }],
    "arguments": [{
            "pipeline": "gs://content_us/framework/prod/pipelines/product/product_transformation_pipeline.json"
        },
        {
            "var": "project_id=mercari-us-de,bucket_name=content_us,env=prod,app=toywiz,source=toywiz.com,category=action_figures_accessories,brand=hasbro,entity_template=action_figures_accessories_hasbro_entity_template.json,entity_mapped_schema=action_figures_accessories_hasbro_entity_schema.json,key_mapper_script=us.toywiz.transform.action_figures_accessories.hasbro.key_mapper,inputPath=content_us/raw/toywiz.com/action_figures_accessories/hasbro/2019-12-13_10_55_30/json/toywiz.txt"
        }
    ],
    "driver": {
        "cores": 1,
        "coreLimit": "1",
        "memory": "3g"
    },
    "executor": {
        "cores": 1,
        "instances": 1,
        "memory": "3g"
    },
    "pipeline_properties": {
        "modules": [{
            "type": "modules.transformation_module.TransformationModule",
            "properties": {
                "name": "transformer",
                "input": "raw",
                "output": "transformed",
                "partition": 1,
                "map_class": "us.$app.transform.$category.$brand.pre_product_transformation_script.Mapper"
            }
        }]
    }
}