{
    "name": "toywiz-mattel cyber-transformation-pipeline",
    "desc": "Toywiz Fashion Dolls Mattel Cyber Entertaintment transformation pipeline",
    "pyFiles": [{
        "pyFile": "gs://content_us/framework/stage/dependencies/us.zip"
    }],
    "arguments": [{
            "pipeline": "gs://content_us/framework/stage/pipelines/product/product_transformation_pipeline.json"
        },
        {
            "var": "project_id=mercari-us-de,bucket_name=content_us,env=stage,app=toywiz,source=toywiz.com,category=fashion_dolls,brand=mattel_cyber,entity_template=fashion_dolls_mattel_entity_template.json,entity_mapped_schema=fashion_dolls_mattel_entity_schema.json,key_mapper_script=us.toywiz.transform.fashion_dolls.mattel_cyber.key_mapper,inputPath=content_us/raw/toywiz.com/fashion_dolls/mattel_cyber/2019-12-12_11_46_06/json/toywiz.txt"
        }
    ],
    "driver": {
        "cores": 1,
        "coreLimit": "1",
        "memory": "3g"
    },
    "executor": {
        "cores": 1,
        "instances": 1,
        "memory": "3g"
    },
    "pipeline_properties": {
        "modules": [{
            "type": "modules.transformation_module.TransformationModule",
            "properties": {
                "name": "transformer",
                "input": "raw",
                "output": "transformed",
                "partition": 1,
                "map_class": "us.$app.transform.$category.$brand.pre_product_transformation_script.Mapper"
            }
        }]
    }
}