{
    "name": "toywiz-mini dolls-animals-transformation-pipeline",
    "desc": "Toywiz Mini Dolls MGA Entertaintment transformation pipeline",
    "pyFiles": [{
        "pyFile": "gs://content_us/framework/stage/dependencies/us.zip"
    }],
    "arguments": [{
            "pipeline": "gs://content_us/framework/stage/pipelines/product/product_transformation_pipeline.json"
        },
        {
            "var": "project_id=mercari-us-de,bucket_name=content_us,env=stage,app=toywiz,source=toywiz.com,category=mini_dolls_&_playsets,brand=mga_entertainment,entity_template=mini_dolls_entity_template.json,entity_mapped_schema=mini_dolls_entity_schema.json,key_mapper_script=us.toywiz.transform.mini_dolls_&_playsets.mga_entertainment.key_mapper,inputPath=content_us/raw/toywiz.com/mini_dolls_&_playsets/mga_entertainment/2019-12-03_17_19_43/json/toywiz.txt"
        }
    ],
    "driver": {
        "cores": 1,
        "coreLimit": "1",
        "memory": "3g"
    },
    "executor": {
        "cores": 1,
        "instances": 1,
        "memory": "3g"
    },
    "pipeline_properties": {
        "modules": [{
            "type": "modules.transformation_module.TransformationModule",
            "properties": {
                "name": "transformer",
                "input": "raw",
                "output": "transformed",
                "partition": 1,
                "map_class": "us.$app.transform.$category.$brand.pre_product_transformation_script.Mapper"
            }
        }]
    }
}