{
  "name": "face-makeup-products-it-cosmetics-trans-pl",
  "desc": "IT Cosmetics Face Makeup sephora.com transformation pipeline",
  "pyFiles": [
    {
      "pyFile": "gs://content_us/framework/stage/dependencies/us.zip"
    }
  ],
  "arguments": [
    {
      "pipeline": "gs://content_us/framework/stage/pipelines/product/product_transformation_pipeline.json"
    },
    {
      "var": "project_id=mercari-us-de,bucket_name=content_us,env=stage,app=sephora,source=sephora.com,category=face_makeup_products,brand=it_cosmetics,entity_template=face_makeup_products_it_cosmetics_entity_template.json,entity_mapped_schema=face_makeup_products_it_cosmetics_entity_schema.json,key_mapper_script=us.sephora.transform.face_makeup_products.key_mapper,inputPath=content_us/raw/sephora.com/face_makeup_products/it_cosmetics/2019-12-31_15_47_35/json/sephora.txt"
    }
  ],
  "driver": {
    "cores": 1,
    "coreLimit": "1",
    "memory": "3g"
  },
  "executor": {
    "cores": 1,
    "instances": 1,
    "memory": "3g"
  },
  "pipeline_properties": {
    "modules": [
      {
        "type": "modules.transformation_module.TransformationModule",
        "properties": {
          "name": "transformer",
          "input": "raw",
          "output": "transformed",
          "partition": 1,
          "map_class": "us.$app.transform.$category.pre_product_transformation_script.Mapper"
        }
      }
    ]
  }
}
