{
  "name": "hair-styling-tools-dyson-trans-pl",
  "desc": "Dyson Hair styling tools Sephora.com transformation pipeline",
  "pyFiles": [
    {
      "pyFile": "gs://content_us/framework/stage/dependencies/us.zip"
    }
  ],
  "arguments": [
    {
      "pipeline": "gs://content_us/framework/stage/pipelines/product/product_transformation_pipeline.json"
    },
    {
      "var": "project_id=mercari-us-de,bucket_name=content_us,env=stage,app=sephora,source=sephora.com,category=hair_styling_tools,brand=dyson,entity_template=hair_styling_tools_entity_template.json,entity_mapped_schema=hair_styling_tools_entity_schema.json,key_mapper_script=us.sephora.transform.hair_styling_tools.key_mapper,inputPath=content_us/raw/sephora.com/hair_styling_tools/dyson/2019-12-28_00_35_19/json/sephora.txt"
    }
  ],
  "driver": {
    "cores": 1,
    "coreLimit": "1",
    "memory": "3g"
  },
  "executor": {
    "cores": 1,
    "instances": 1,
    "memory": "3g"
  },
  "pipeline_properties": {
    "modules": [
      {
        "type": "modules.transformation_module.TransformationModule",
        "properties": {
          "name": "transformer",
          "input": "raw",
          "output": "transformed",
          "partition": 1,
          "map_class": "us.$app.transform.$category.pre_product_transformation_script.Mapper"
        }
      }
    ]
  }
}
