{
    "name": "ae-womens-shorts-american-eagle-trans-pl",
    "desc": "Ae Womens Shorts American Eagle transformation pipeline",
    "pyFiles": [
      {
        "pyFile": "gs://content_us/framework/stage/dependencies/us.zip"
      }
    ],
    "arguments": [
      {
        "pipeline": "gs://content_us/framework/stage/pipelines/product/product_transformation_pipeline.json"
      },
      {
        "var": "project_id=mercari-us-de,bucket_name=content_us,env=stage,app=ae,source=ae.com,category=womens_shorts,brand=american_eagle,entity_template=ae_womens_shorts_entity_template.json,entity_mapped_schema=ae_womens_shorts_entity_schema.json,key_mapper_script=us.ae.transform.womens_shorts.key_mapper,inputPath=content_us/raw/ae.com/womens_shorts/american_eagle/2020-03-13_16_49_42/json/ae.txt"
      }
    ],
    "driver": {
      "cores": 1,
      "coreLimit": "1",
      "memory": "3g"
    },
    "executor": {
      "cores": 1,
      "instances": 1,
      "memory": "3g"
    },
    "pipeline_properties": {
      "modules": [
        {
          "type": "modules.transformation_module.TransformationModule",
          "properties": {
            "name": "transformer",
            "input": "raw",
            "output": "transformed",
            "partition": 1,
            "map_class": "us.$app.transform.$category.pre_product_transformation_script.Mapper"
          }
        }
      ]
    }
  }
  