{
  "name": "bombshellsportswear-womens_sports_bras-bombshell_sportswear-trans-pl",
  "desc": "Bombshell Sportswear Sports Bras bombshellsportswear.com transformation pipeline",
  "pyFiles": [
    {
      "pyFile": "gs://content_us/framework/$env/dependencies/us.zip"
    }
  ],
  "arguments": [
    {
      "pipeline": "gs://content_us/framework/$env/pipelines/product/product_transformation_pipeline.json"
    },
    {
      "var": "project_id=mercari-us-de,bucket_name=content_us,env=$env,app=bombshellsportswear,source=bombshellsportswear.com,category=womens_sports_bras,brand=bombshell_sportswear,entity_template=womens_sports_bras_entity_template.json,entity_mapped_schema=womens_sports_bras_entity_schema.json,key_mapper_script=us.bombshellsportswear.transform.womens_sports_bras.key_mapper,inputPath=content_us/raw/bombshellsportswear.com/womens_sports_bras/bombshell_sportswear/2021-05-04-18-12-21/json/bombshellsportswear.txt"
    }
  ],
  "driver": {
    "cores": 1,
    "coreLimit": "1",
    "memory": "3g"
  },
  "executor": {
    "cores": 1,
    "instances": 1,
    "memory": "3g"
  },
  "pipeline_properties": {
    "modules": [
      {
        "type": "modules.transformation_module.TransformationModule",
        "properties": {
          "name": "transformer",
          "input": "raw",
          "output": "transformed",
          "partition": 1,
          "map_class": "us.$app.transform.$category.pre_product_transformation_script.Mapper"
        }
      }
    ]
  }
}
