[
    {
        "entity": "system_category",
        "path": "$.category"
    },
    {
        "entity": "brand",
        "path": "$.brand"
    },
    {
        "entity": "model",
        "path": "$.model"
    },
    {
        "entity": "product_line",
        "path": "$.product_line"
    },
    {
        "entity": "features",
        "path": "$.features"
    },
    {
        "entity": "msrp",
        "path": "$.msrp.amount"
    },
    {
        "entity": "model_sku",
        "path": "$.model_sku"
    },
    {
        "entity": "description",
        "path": "$.description"
    },
    {
        "entity": "product_type",
        "path": "$.product_type"
    },
    {
        "entity": "sub_type",
        "path": "$.sub_type"
    }
]
