{
  "name": "stockx-nike-mens-athlectic-shoes-trans-pl",
  "desc": "Adidas Nike Mens Athletic Shoes stockx.com transformation pipeline",
  "pyFiles": [
    {
      "pyFile": "gs://content_us/framework/stage/dependencies/us.zip"
    }
  ],
  "arguments": [
    {
      "pipeline": "gs://content_us/framework/stage/pipelines/product/product_transformation_pipeline.json"
    },
    {
      "var": "project_id=mercari-us-de,bucket_name=content_us,env=stage,app=stockx,source=stockx.com,category=mens_athletic_shoes,brand=nike,entity_template=stockx_mens_athletic_shoes_nike_entity_template.json,entity_mapped_schema=stockx_mens_athletic_shoes_nike_entity_schema.json,key_mapper_script=us.stockx.transform.mens_athletic_shoes.nike.key_mapper,inputPath=content_us/raw/stockx.com/mens_athletic_shoes/nike/2020-05-26_10_26_05/json/stockx.txt"
    }
  ],
  "driver": {
    "cores": 1,
    "coreLimit": "1",
    "memory": "3g"
  },
  "executor": {
    "cores": 1,
    "instances": 3,
    "memory": "3g"
  },
  "pipeline_properties": {
    "modules": [
      {
        "type": "modules.transformation_module.TransformationModule",
        "properties": {
          "name": "transformer",
          "input": "raw",
          "output": "transformed",
          "partition": 1,
          "map_class": "us.$app.transform.$category.$brand.pre_product_transformation_script.Mapper"
        }
      }
    ]
  }
}