{
  "name": "stockx-yeezy-fashion-sneakers-trans-pl",
  "desc": "Adidas Yeezy Fashion Sneakers stockx.com transformation pipeline",
  "pyFiles": [
    {
      "pyFile": "gs://content_us/framework/stage/dependencies/us.zip"
    }
  ],
  "arguments": [
    {
      "pipeline": "gs://content_us/framework/stage/pipelines/product/product_transformation_pipeline.json"
    },
    {
      "var": "project_id=mercari-us-de,bucket_name=content_us,env=stage,app=stockx,source=stockx.com,category=fashion_sneakers,brand=yeezy,entity_template=stockx_fashion_sneakers_yeezy_entity_template.json,entity_mapped_schema=stockx_fashion_sneakers_yeezy_entity_schema.json,key_mapper_script=us.stockx.transform.fashion_sneakers.key_mapper,inputPath=content_us/raw/stockx.com/fashion_sneakers/yeezy/2020-05-07_06_06_28/json/stockx.txt"
    }
  ],
  "driver": {
    "cores": 1,
    "coreLimit": "1",
    "memory": "3g"
  },
  "executor": {
    "cores": 1,
    "instances": 3,
    "memory": "3g"
  },
  "pipeline_properties": {
    "modules": [
      {
        "type": "modules.transformation_module.TransformationModule",
        "properties": {
          "name": "transformer",
          "input": "raw",
          "output": "transformed",
          "partition": 1,
          "map_class": "us.$app.transform.$category.$brand.pre_product_transformation_script.Mapper"
        }
      }
    ]
  }
}