{
  "name": "nocona-mens_shoes-nocona-trans-pl",
  "desc": "nocona mens_shoes nocona transformation pipeline",
  "pyFiles": [
    {
      "pyFile": "gs://content_us/framework/$env/dependencies/us.zip"
    }
  ],
  "arguments": [
    {
      "pipeline": "gs://content_us/framework/$env/pipelines/product/product_transformation_pipeline.json"
    },
    {
      "var": "project_id=mercari-us-de,bucket_name=content_us,env=$env,app=nocona,source=nocona.com,category=mens_shoes,brand=nocona,entity_template=mens_shoes_entity_template.json,entity_mapped_schema=mens_shoes_entity_schema.json,key_mapper_script=us.nocona.transform.mens_shoes.key_mapper,inputPath=content_us/raw/nocona.com/mens_shoes/nocona/2021-06-13_19_36_26/json/nocona.txt"
    }
  ],
  "driver": {
    "cores": 1,
    "coreLimit": "1",
    "memory": "3g"
  },
  "executor": {
    "cores": 1,
    "instances": 1,
    "memory": "3g"
  },
  "pipeline_properties": {
    "modules": [
      {
        "type": "modules.transformation_module.TransformationModule",
        "properties": {
          "name": "transformer",
          "input": "raw",
          "output": "transformed",
          "partition": 1,
          "map_class": "us.$app.transform.$category.pre_product_transformation_script.Mapper"
        }
      }
    ]
  }
}
