[
    {
        "entity":"system_category",
        "path":"$.category"
    },
    {
        "entity": "brand",
        "path": "$.brand"
    },
    {
        "entity": "product_type",
        "path": "$.product_type"
    },
    {
        "entity":"model",
        "path":"$.model"
    },
    {
        "entity":"metal_type",
        "path":"$.metal_type"
    },
    {
        "entity":"metal_color",
        "path":"$.metal_color"
    },
    {
        "entity":"price",
        "path":"$.price.amount"
    },
    {
        "entity":"msrp",
        "path":"$.msrp.amount"
    },
  
    {
        "entity":"description",
        "path":"$.description"
    },
    {
        "entity":"metal_finish",
        "path":"$.metal_finish"
    },
    {
        "entity":"authentication",
        "path":"$.authentication"
    },
    {
        "entity":"location",
        "path":"$.location"
    },
    {
        "entity":"weight",
        "path":"$.weight"
    },
    {
        "entity":"material",
        "path":"$.material"
    },
    {
        "entity":"length",
        "path":"$.length"
    },
    {
        "entity":"width",
        "path":"$.width"
    },
    {
        "entity":"model_sku",
        "path":"$.model_sku"
    },
    {
        "entity":"item_condition",
        "path":"$.item_condition"
    }

]