{
  "name": "body-lotions-moisturizers-trans-pl",
  "desc": "Bath & Body Works Body Cream Skincare transformation pipeline",
  "pyFiles": [
    {
      "pyFile": "gs://content_us/framework/stage/dependencies/us.zip"
    }
  ],
  "arguments": [
    {
      "pipeline": "gs://content_us/framework/stage/pipelines/product/product_transformation_pipeline.json"
    },
    {
      "var": "project_id=mercari-us-de,bucket_name=content_us,env=stage,app=bathandbodyworks,source=bathandbodyworks.com,category=body_lotions_moisturizers,brand=bath_body_works,entity_template=body_lotions_moisturizers_entity_template.json,entity_mapped_schema=body_lotions_moisturizers_entity_schema.json,key_mapper_script=us.bathandbodyworks.transform.body_lotions_moisturizers.key_mapper,inputPath=content_us/raw/bathandbodyworks.com/body_lotions_moisturizers/bath_body_works/2019-12-21_13_06_07/json/bathandbodyworks.txt"
    }
  ],
  "driver": {
    "cores": 1,
    "coreLimit": "1",
    "memory": "3g"
  },
  "executor": {
    "cores": 1,
    "instances": 1,
    "memory": "3g"
  },
  "pipeline_properties": {
    "modules": [
      {
        "type": "modules.transformation_module.TransformationModule",
        "properties": {
          "name": "transformer",
          "input": "raw",
          "output": "transformed",
          "partition": 1,
          "map_class": "us.$app.transform.$category.pre_product_transformation_script.Mapper"
        }
      }
    ]
  }
}
