[
    {
        "entity": "system_category",
        "path": "$.category"
    },
    {
        "entity": "brand",
        "path": "$.brand"
    },
    {
        "entity": "model",
        "path": "$.model"
    },
    {
        "entity": "color",
        "path": "$.color"
    },
    {
        "entity": "model_sku",
        "path": "$.model_sku"
    },
    {
        "entity": "height",
        "path": "$.height"
    },
    {
        "entity": "width",
        "path": "$.width"
    },
    {
        "entity": "depth",
        "path": "$.depth"
    },
    {
        "entity": "weight",
        "path": "$.weight"
    },
    {
        "entity": "series",
        "path": "$.series"
    },
    {
        "entity": "msrp",
        "path": "$.msrp.amount"
    },
    {
        "entity": "battery_life",
        "path": "$.battery_life"
    },
    {
        "entity": "microphone",
        "path": "$.microphone"
    }
]