[
    {
        "entity": "system_category",
        "path": "$.category"
    },
    {
        "entity": "brand",
        "path": "$.brand"
    },
    {
        "entity": "model",
        "path": "$.model"
    },
    {
        "entity": "storage_capacity",
        "path": "$.storage_size"
    },
    {
        "entity": "color",
        "path": "$.color"
    },
    {
        "entity": "carrier",
        "path": "$.carrier",
        "separator": ", "
    },
    {
        "entity": "upc",
        "path": "$.upc"
    },
    {
        "entity": "height",
        "path": "$.height"
    },
    {
        "entity": "width",
        "path": "$.width"
    },
    {
        "entity": "depth",
        "path": "$.depth"
    },
    {
        "entity": "weight",
        "path": "$.weight"
    },
    {
        "entity": "screen_size",
        "path": "$.screen_size"
    },
    {
        "entity": "front_camera_resolution",
        "path": "$.front_camera_resolution"
    },
    {
        "entity": "rear_camera_resolution",
        "path": "$.rear_camera_resolution"
    },
    {
        "entity": "operating_system",
        "path": "$.operating_system"
    },
    {
        "entity": "screen_resolution",
        "path": "$.screen_resolution"
    },
    {
        "entity": "sim_card_size",
        "path": "$.sim_card_size"
    },
    {
        "entity": "model_sku",
        "path": "$.model_sku"
    },
    {
        "entity": "price",
        "path": "$.price.amount"
    }
]