[
    {
        "entity": "system_category",
        "path": "$.category"
    },
    {
        "entity": "brand",
        "path": "$.brand"
    },
    {
        "entity": "model",
        "path": "$.model"
    },
    {
        "entity": "year_of_manufacture",
        "path": "$.year_of_manufacture"
    },
    {
        "entity": "msrp",
        "path": "$.msrp.amount"
    },
    {
        "entity": "description",
        "path": "$.description"
    },
    {
        "entity": "screen_size",
        "path": "$.screen_size"
    },
    {
        "entity": "screen_resolution",
        "path": "$.screen_resolution"
    },
    {
        "entity": "touch_screen",
        "path": "$.touch_screen"
    },
    {
        "entity": "storage_type",
        "path": "$.storage_type"
    },
    {
        "entity": "storage_capacity",
        "path": "$.storage_capacity"
    },
    {
        "entity": "ram",
        "path": "$.ram"
    },
    {
        "entity": "featured_graphics",
        "path": "$.featured_graphics"
    },
    {
        "entity": "processor_model",
        "path": "$.processor_model"
    },
    {
        "entity": "model_sku",
        "path": "$.model_sku"
    },
    {
        "entity": "color",
        "path": "$.color"
    },
    {
        "entity": "size",
        "path": "$.size"
    },
    {
        "entity": "cooling_type",
        "path": "$.cooling_type"
    },
    {
        "entity": "number_of_ports",
        "path": "$.number_of_ports"
    },
    {
        "entity": "hdmi_input",
        "path": "$.hdmi_input"
    },
    {
        "entity": "graphics_processing_type",
        "path": "$.graphics_processing_type"
    },
    {
        "entity": "gpu_video_card",
        "path": "$.gpu_video_card"
    },
    {
        "entity": "gpu_video_memory",
        "path": "$.gpu_video_memory"
    },
    {
        "entity": "memory_type",
        "path": "$.memory_type"
    },
    {
        "entity": "camera_integration",
        "path": "$.camera_integration"
    },
    {
        "entity": "optical_drive_type",
        "path": "$.optical_drive_type"
    },
    {
        "entity": "height",
        "path": "$.height"
    },
    {
        "entity": "width",
        "path": "$.width"
    },
    {
        "entity": "depth",
        "path": "$.depth"
    },
    {
        "entity": "weight",
        "path": "$.weight"
    },
    {
        "entity": "upc",
        "path": "$.upc"
    }
]