[
    {
        "entity": "system_category",
        "path": "$.category"
    },
    {
        "entity": "brand",
        "path": "$.brand"
    },
    {
        "entity": "model",
        "path": "$.model"
    },
    {
        "entity": "color",
        "path": "$.color"
    },
    {
        "entity": "color_category",
        "path": "$.color_category"
    },
    {
        "entity": "price",
        "path": "$.msrp.amount"
    },
    {
        "entity": "indoor_outdoor_use",
        "path": "$.indoor_outdoor_use"
    },
    {
        "entity": "memory_cards_supported",
        "path": "$.memory_cards_supported"
    },
    {
        "entity": "weight",
        "path": "$.weight"
    },
    {
        "entity": "video_resolution",
        "path": "$.video_resolution"
    },
    {
        "entity": "megapixels",
        "path": "$.megapixels"
    },
    {
        "entity": "product_line",
        "path": "$.product_line"
    },
    {
        "entity": "field_of_view",
        "path": "$.field_of_view"
    },
    {
        "entity": "camera_integration",
        "path": "$.camera_integration"
    },
    {
        "entity": "rotor_number",
        "path": "$.rotor_number"
    },
    {
        "entity": "battery_life",
        "path": "$.battery_life"
    },
    {
        "entity": "battery_voltage",
        "path": "$.battery_voltage"
    },
    {
        "entity": "product_type",
        "path": "$.product_type"
    },
    {
        "entity": "model_sku",
        "path": "$.model_sku"
    },
    {
        "entity": "upc",
        "path": "$.upc"
    },
    {
        "entity": "interface",
        "path": "$.interface"
    }
]