[
    {
        "entity": "system_category",
        "path": "$.category"
    },
    {
        "entity": "brand",
        "path": "$.brand"
    },
    {
        "entity": "model",
        "path": "$.model"
    },
    {
        "entity": "price",
        "path": "$.price.amount"
    },
    {
        "entity": "genre",
        "path": "$.genre"
    },
    {
        "entity": "sub_genre",
        "path": "$.sub_genre"
    },
    {
        "entity": "duration",
        "path": "$.duration"
    },
    {
        "entity": "release_year",
        "path": "$.release_year"
    },
    {
        "entity": "media_format",
        "path": "$.media_format"
    },
    {
        "entity": "edition",
        "path": "$.edition"
    },
    {
        "entity": "aspect_ratio",
        "path": "$.aspect_ratio"
    },
    {
        "entity": "product_line",
        "path": "$.product_line"
    },
    {
        "entity": "decade",
        "path": "$.decade"
    },
    {
        "entity": "rating",
        "path": "$.rating"
    },
    {
        "entity": "award",
        "path": "$.award"
    },
    {
        "entity": "upc",
        "path": "$.upc"
    },
    {
        "entity": "description",
        "path": "$.description"
    }
]