[
    {
        "entity": "system_category",
        "path": "$.category"
    },
    {
        "entity": "brand",
        "path": "$.brand"
    },
    {
        "entity": "model",
        "path": "$.model"
    },
    {
        "entity": "color",
        "path": "$.color"
    },
    {
        "entity": "compatibility",
        "path": "$.compatibility"
    },
    {
        "entity": "price",
        "path": "$.price.amount"
    },
    {
        "entity": "screen_resolution",
        "path": "$.screen_resolution"
    },
    {
        "entity": "screen_size",
        "path": "$.screen_size"
    },
    {
        "entity": "item_condition",
        "path": "$.item_condition"
    },
    {
        "entity": "model_number",
        "path": "$.model_number"
    },
    {
        "entity": "product_line",
        "path": "$.product_line"
    },
    {
        "entity": "carrier",
        "path": "$.carrier"
    },
    {
        "entity": "material",
        "path": "$.material"
    },
    {
        "entity": "wireless_charging",
        "path": "$.wireless_charging"
    },
    {
        "entity": "battery_life",
        "path": "$.battery_life"
    },
    {
        "entity": "operating_systems",
        "path": "$.operating_systems"
    },
    {
        "entity": "thickness",
        "path": "$.thickness"
    },
    {
        "entity": "width",
        "path": "$.width"
    },
    {
        "entity": "weight",
        "path": "$.weight"
    },
    {
        "entity": "depth",
        "path": "$.depth"
    },
    {
        "entity": "features",
        "path": "$.features"
    }
]