[    
    
    {
        "entity": "system_category",
        "path": "$.category"
    },
    {
        "entity": "brand",
        "path": "$.brand"
    },
    {
        "entity": "model",
        "path": "$.model"
    },
    {
        "entity": "color",
        "path": "$.color"
    },
    {
        "entity": "color_category",
        "path": "$.color_category"
    },
    {
        "entity": "price",
        "path": "$.price"
    },
    {
        "entity": "megapixels",
        "path": "$.megapixels"
    },
    {
        "entity": "video_resolution",
        "path": "$.video_resolution"
    },
    {
        "entity": "memory_card_supported",
        "path": "$.memory_card_supported"
    },
    {
        "entity": "wifi",
        "path": "$.wifi"
    },
    {
        "entity": "water_resistant",
        "path": "$.water_resistant"
    },
    {
        "entity": "charger_type",
        "path": "$.charger_type"
    },
    {
        "entity": "hdr",
        "path": "$.hdr"
    },
    {
        "entity": "upc",
        "path": "$.upc"
    },
    {
        "entity": "model_sku",
        "path": "$.model_sku"
    },
    {
        "entity": "touch_screen",
        "path": "$.touch_screen"
    }   
]