[{
        "entity": "system_category",
        "path": "$.category"
    },
    {
        "entity": "brand",
        "path": "$.brand"
    },
    {
        "entity": "character",
        "path": "$.character"
    },
    {
        "entity": "model",
        "path": "$.model"
    },
    {
        "entity": "manufacturer",
        "path": "$.company"
    },
    {
        "entity": "series",
        "path": "$.series"
    },
    {
        "entity": "scale",
        "path": "$.scale"
    },
    {
        "entity": "msrp",
        "path": "$.price.amount"
    },
    {
        "entity": "product_line",
        "path": "$.product_line"
    },
    {
        "entity": "upc",
        "path": "$.upc"
    },
    {
        "entity": "description",
        "path": "$.description"
    }


]