[{
        "entity": "system_category",
        "path": "$.category"
    },
    {
        "entity": "brand",
        "path": "$.brand"
    },
    {
        "entity": "product_type",
        "path": "$.product_type"
    },
    {
        "entity": "model",
        "path": "$.model"
    },
    {
        "entity": "series",
        "path": "$.series"
    },
    {
        "entity": "upc",
        "path": "$.upc"
    },
    {
        "entity": "msrp",
        "path": "$.price.amount"
    },
    {
        "entity": "description",
        "path": "$.description"
    }


]