[{
        "entity": "system_category",
        "path": "$.category"
    },
    {
        "entity": "brand",
        "path": "$.brand"
    },
    {
        "entity": "price",
        "path": "$.price.amount"
    },
    {
        "entity":"product_type",
        "path":"$.product_type"
    },
    {
        "entity": "model",
        "path": "$.model"
    },
    {
        "entity": "manufacturer",
        "path": "$.manufacturer"
    },
    {
        "entity": "character",
        "path": "$.character"
    },
    {
        "entity": "series",
        "path": "$.series"
    },
    {
        "entity": "rarity",
        "path": "$.rarity"
    },

    {
        "entity": "upc",
        "path": "$.upc"
    },
    {
        "entity": "description",
        "path": "$.description"
    }


]