[{
        "entity": "system_category",
        "path": "$.category"
    },
    {
        "entity": "brand",
        "path": "$.brand"
    },
    {
        "entity": "series",
        "path": "$.series"
    },
    {
        "entity": "model",
        "path": "$.model"
    }, 
    {
        "entity": "product_line",
        "path": "$.product_line"
    },
    {
        "entity": "rarity",
        "path": "$.rarity"
    }


]