[
    {
        "entity": "system_category",
        "path": "$.category"
    },
    {
        "entity": "brand",
        "path": "$.brand"
    },
    {
        "entity":"model",
        "path":"$.model"
    },
    {
        "entity":"material",
        "path":"$.material"
    },
    {
        "entity":"gemstone",
        "path":"$.gemstone"
    },
    {
        "entity":"product_line",
        "path":"$.product_line"
    },
    {
        "entity":"msrp",
        "path":"$.msrp.amount"
    },
    {
        "entity":"description",
        "path":"$.description"
    },
    {
        "entity":"total_carat_weight",
        "path":"$.total_carat_weight"
    }
]
