[
    {
        "entity": "system_category",
        "path": "$.category"
    },
    {
        "entity": "brand",
        "path": "$.brand"
    },
    {
        "entity":"model",
        "path":"$.model"
    },
    {
        "entity":"color",
        "path":"$.color"
    },
    {
        "entity":"rise",
        "path":"$.rise"
    },
    {
        "entity":"activity",
        "path":"$.activity"
    },
    {
        "entity":"compression",
        "path":"$.compression"
    },
    {
        "entity":"material",
        "path":"$.material"
    },
    {
        "entity":"price",
        "path":"$.price.amount"
    }
]
