{
    "name": "pricecharting-videogames-sony-trans-pl",
    "desc": "sony playstation Video Games pricecharting.com transformation pipeline",
    "pyFiles": [
      {
        "pyFile": "gs://content_us/framework/$env/dependencies/us.zip"
      }
    ],
    "arguments": [
      {
        "pipeline": "gs://content_us/framework/$env/pipelines/product/product_transformation_pipeline.json"
      },
      {
        "var": "project_id=mercari-us-de,bucket_name=content_us,env=$env,app=pricecharting,source=pricecharting.com,category=video_games,brand=sony,entity_template=video_games_entity_template.json,entity_mapped_schema=video_games_entity_schema.json,key_mapper_script=us.pricecharting.transform.video_games.key_mapper,inputPath=content_us/raw/pricecharting.com/video_games/sony/2020-11-17-16-56-27/json/pricecharting.txt,dedupe_criteria_system_category=Video%20Games,dedupe_criteria_brand=Sony,pre_product_dedupe_column=platform+model,kg_raw_items_dedupe_column=platform+model,merge_func=us.product.transform.merge_func.Merger"
      }
    ],
    "driver": {
      "cores": 1,
      "coreLimit": "1",
      "memory": "3g"
    },
    "executor": {
      "cores": 1,
      "instances": 1,
      "memory": "3g"
    },
    "pipeline_properties": {
      "modules": [
        {
          "type": "modules.transformation_module.TransformationModule",
          "properties": {
            "name": "transformer",
            "input": "raw",
            "output": "transformed",
            "partition": 1,
            "map_class": "us.$app.transform.$category.pre_product_transformation_script.Mapper"
          }
        }
      ]
    }
  }
  