{
    "name": "wigsbuy-Hair Extensions and Wigs Virgin only-trans-pipeline",
    "desc": "Wigsbuy Hair Extensions and Wigs Virgin Only transformation pipeline",
    "pyFiles": [{
        "pyFile": "gs://content_us/framework/stage/dependencies/us.zip"
    }],
    "arguments": [{
            "pipeline": "gs://content_us/framework/stage/pipelines/product/product_transformation_pipeline.json"
        },
        {
            "var": "project_id=mercari-us-de,bucket_name=content_us,env=stage,app=wigsbuy,source=wigsbuy.com,category=hair_extensions_and_wigs,brand=virgin_only,entity_template=wigsbuy_hairextension_entity_template.json,entity_mapped_schema=wigsbuy_hairextension_entity_schema.json,key_mapper_script=us.wigsbuy.transform.hair_extensions_and_wigs.virgin_only.key_mapper,inputPath=content_us/raw/wigsbuy.com/hair_extensions__wigs/virgin_only/2020-06-19_11_50_21/json/wigsbuy.txt"
        }
    ],
    "driver": {
        "cores": 1,
        "coreLimit": "1",
        "memory": "3g"
    },
    "executor": {
        "cores": 1,
        "instances": 1,
        "memory": "3g"
    },
    "pipeline_properties": {
        "modules": [{
            "type": "modules.transformation_module.TransformationModule",
            "properties": {
                "name": "transformer",
                "input": "raw",
                "output": "transformed",
                "partition": 1,
                "map_class": "us.$app.transform.$category.$brand.pre_product_transformation_script.Mapper"
            }
        }]
    }
}