[
    {
        "entity": "system_category",
        "path": "$.category"
    },
    {
        "entity": "brand",
        "path": "$.brand"
    },
    {
        "entity":"model",
        "path":"$.model"
    },
    {
        "entity":"sport",
        "path":"$.sport"
    },
    {
        "entity":"player",
        "path":"$.player"
    },
    {
        "entity":"product_line",
        "path":"$.product_line"
    }
]
