[
    {
        "entity": "system_category",
        "path": "$.category"
    },
    {
        "entity": "brand",
        "path": "$.brand"
    },
    {
        "entity":"model",
        "path":"$.model"
    },
    {
        "entity":"heel_height",
        "path":"$.heel_height"
    },
    {
        "entity":"color",
        "path":"$.color"
    },
    {
        "entity":"material",
        "path":"$.material"
    },
    {
        "entity":"msrp",
        "path":"$.msrp.amount"
    },
    {
        "entity":"description",
        "path":"$.description"
    },
    {
        "entity":"collection",
        "path":"$.collection"
    },
    {
        "entity":"sku",
        "path":"$.sku"
    }
]
