[
    {
        "entity": "system_category",
        "path": "$.category"
    },
    {
        "entity": "brand",
        "path": "$.brand"
    },
    {
        "entity":"model",
        "path":"$.model"
    },
    {
        "entity":"color",
        "path":"$.color"
    },
    {
        "entity":"product_line",
        "path":"$.product_line"
    },
    {
        "entity":"price",
        "path":"$.price.amount"
    },
    {
        "entity":"color_family",
        "path":"$.color_family"
    },
    {
        "entity":"material",
        "path":"$.material"
    },
    {
        "entity":"volume",
        "path":"$.volume"
    },
    {
        "entity":"height",
        "path":"$.height"
    },
    {
        "entity":"width",
        "path":"$.width"
    },
    {
        "entity":"depth",
        "path":"$.depth"
    },
    {
        "entity":"weight",
        "path":"$.weight"
    },
    {
        "entity":"activity",
        "path":"$.activity"
    },
    {
        "entity":"description",
        "path":"$.description"
    },
    {
        "entity":"model_sku",
        "path":"$.model_sku"
    }
]
