{
  "name": "sunmountain-push_pull_golf_carts-sun_mountain-trans-pl",
  "desc": "sunmountain push_pull_golf_carts sun_mountain transformation pipeline",
  "pyFiles": [
    {
      "pyFile": "gs://content_us/framework/$env/dependencies/us.zip"
    }
  ],
  "arguments": [
    {
      "pipeline": "gs://content_us/framework/$env/pipelines/product/product_transformation_pipeline.json"
    },
    {
      "var": "project_id=mercari-us-de,bucket_name=content_us,env=$env,app=sunmountain,source=sunmountain.com,category=push_pull_golf_carts,brand=sun_mountain,entity_template=push_pull_golf_carts_entity_template.json,entity_mapped_schema=push_pull_golf_carts_entity_schema.json,key_mapper_script=us.sunmountain.transform.push_pull_golf_carts.key_mapper,inputPath=content_us/raw/sunmountain.com/push-pull_golf_carts/sun_mountain/2021-07-03_21_40_14/json/sunmountain.txt"
    }
  ],
  "driver": {
    "cores": 1,
    "coreLimit": "1",
    "memory": "3g"
  },
  "executor": {
    "cores": 1,
    "instances": 1,
    "memory": "3g"
  },
  "pipeline_properties": {
    "modules": [
      {
        "type": "modules.transformation_module.TransformationModule",
        "properties": {
          "name": "transformer",
          "input": "raw",
          "output": "transformed",
          "partition": 1,
          "map_class": "us.$app.transform.$category.pre_product_transformation_script.Mapper"
        }
      }
    ]
  }
}
