[

    {
        "entity": "system_category",
        "path": "$.category"
    },
    {
        "entity": "brand",
        "path": "$.brand"
    },
    {
        "entity": "model",
        "path": "$.model"
    },
    {
        "entity": "heel_height",
        "path": "$.heel_height"
    },
    {
        "entity": "heel_type",
        "path": "$.heel_type"
    },
    {
        "entity": "color",
        "path": "$.color"
    },
 
    {
        "entity": "us_shoe_size_womens",
        "path": "$.us_shoe_size_womens"
    },
    {
        "entity": "item_condition",
        "path": "$.item_condition"
    },
    {
        "entity": "shoe_width",
        "path": "$.shoe_width"
    },
    {
        "entity":"price",
        "path":"$.price.amount"
    },
    {
        "entity":"msrp",
        "path":"$.msrp.amount"
    }


]