[

    {
        "entity": "system_category",
        "path": "$.category"
    },
    {
        "entity": "brand",
        "path": "$.brand"
    },
    {
        "entity": "color",
        "path": "$.color"
    },
    {
        "entity": "material",
        "path": "$.material"
    },
    {
        "entity": "model",
        "path": "$.model"
    },
    {
        "entity": "length",
        "path": "$.length"
    },
    {
        "entity": "height",
        "path": "$.height"
    },
    {
        "entity": "width",
        "path": "$.width"
    },
    {
        "entity": "item_condition",
        "path": "$.item_condition"
    },
    {
        "entity": "product_line",
        "path": "$.product_line"
    },
    {
        "entity":"price",
        "path":"$.price.amount"
    },
    {
        "entity":"msrp",
        "path":"$.msrp.amount"
    },
    {
        "entity":"description",
        "path":"$.description"
    }

]