[

    {
        "entity": "system_category",
        "path": "$.category"
    },
    {
        "entity": "brand",
        "path": "$.brand"
    },
    {
        "entity": "model",
        "path": "$.model"
    },
    {
        "entity": "material",
        "path": "$.material"
    },
    {
        "entity": "color",
        "path": "$.color"
    },
    {
        "entity": "title",
        "path": "$.item_title"
    },
    {
        "entity": "price",
        "path": "$.price.amount"
    },
    {
        "entity": "item_condition",
        "path": "$.condition"
    },
    {
        "entity": "product line",
        "path": "$.style_name"
    }

]