{
  "name": "sandals-tory-burch-trans-pl",
  "desc": "Tory Burch Sandals farfetch.com transformation pipeline",
  "pyFiles": [
    {
      "pyFile": "gs://content_us/framework/stage/dependencies/us.zip"
    }
  ],
  "arguments": [
    {
      "pipeline": "gs://content_us/framework/stage/pipelines/product/product_transformation_pipeline.json"
    },
    {
      "var": "project_id=mercari-us-de,bucket_name=content_us,env=stage,app=farfetch,source=farfetch.com,category=sandals,brand=tory_burch,entity_template=sandals_tory_burch_entity_template.json,entity_mapped_schema=sandals_tory_burch_entity_schema.json,key_mapper_script=us.farfetch.transform.sandals.tory_burch.key_mapper,inputPath=content_us/raw/farfetch.com/sandals/tory_burch/2020-04-17_22_02_25/json/farfetch.txt"
    }
  ],
  "driver": {
    "cores": 1,
    "coreLimit": "1",
    "memory": "3g"
  },
  "executor": {
    "cores": 1,
    "instances": 1,
    "memory": "3g"
  },
  "pipeline_properties": {
    "modules": [
      {
        "type": "modules.transformation_module.TransformationModule",
        "properties": {
          "name": "transformer",
          "input": "raw",
          "output": "transformed",
          "partition": 1,
          "map_class": "us.$app.transform.$category.$brand.pre_product_transformation_script.Mapper"
        }
      }
    ]
  }
}
