{
  "name": "christianlouboutin-womens-pumps-trans-pl",
  "desc": "Christian Louboutin Women's Pumps transformation pipeline",
  "pyFiles": [
    {
      "pyFile": "gs://content_us/framework/stage/dependencies/us.zip"
    }
  ],
  "arguments": [
    {
      "pipeline": "gs://content_us/framework/stage/pipelines/product/product_transformation_pipeline.json"
    },
    {
      "var": "project_id=mercari-us-de,bucket_name=content_us,env=stage,app=christianlouboutin,source=christianlouboutin.com,category=womens_pumps,brand=christianlouboutin,entity_template=womens_pumps_entity_template.json,entity_mapped_schema=womens_pumps_entity_schema.json,key_mapper_script=us.christianlouboutin.transform.womens_pumps.key_mapper,inputPath=content_us/raw/christianlouboutin.com/womens_pumps/christian_louboutin/2019-12-20_22_40_56/json/christianlouboutin.txt"
    }
  ],
  "driver": {
    "cores": 1,
    "coreLimit": "1",
    "memory": "3g"
  },
  "executor": {
    "cores": 1,
    "instances": 1,
    "memory": "3g"
  },
  "pipeline_properties": {
    "modules": [
      {
        "type": "modules.transformation_module.TransformationModule",
        "properties": {
          "name": "transformer",
          "input": "raw",
          "output": "transformed",
          "partition": 1,
          "map_class": "us.$app.transform.$category.pre_product_transformation_script.Mapper"
        }
      }
    ]
  }
}
