{
    "name": "soccer-cardboardconnection-trans-pl",
    "desc": "soccer cardboard_connection transformation pipeline",
    "pyFiles": [
      {
        "pyFile": "gs://content_us/framework/$env/dependencies/us.zip"
      }
    ],
    "arguments": [
      {
        "pipeline": "gs://content_us/framework/$env/pipelines/product/product_transformation_pipeline.json"
      },
      {
        "var": "project_id=mercari-us-de,bucket_name=content_us,env=$env,app=cardboardconnection,source=cardboardconnection.com,category=soccer_trading_cards,brand=topps,entity_template=soccer_cardboard_connection_entity_template.json,entity_mapped_schema=soccer_cardboard_connection_entity_schema.json,key_mapper_script=us.cardboardconnection.transform.soccer.key_mapper,inputPath=content_us/raw/cardboardconnection.com/sports_trading_cards_&_accessories/topps_soccer/2021-03-17_17_44_07/json/cardboardconnection.txt"
      }
    ],
    "driver": {
      "cores": 1,
      "coreLimit": "1",
      "memory": "3g"
    },
    "executor": {
      "cores": 1,
      "instances": 1,
      "memory": "3g"
    },
    "pipeline_properties": {
      "modules": [
        {
          "type": "modules.transformation_module.TransformationModule",
          "properties": {
            "name": "transformer",
            "input": "raw",
            "output": "transformed",
            "partition": 1,
            "map_class": "us.$app.transform.soccer.pre_product_transformation_script.Mapper"
          }
        }
      ]
    }
  }