[
    {
        "entity": "system_category",
        "path": "$.category"
    },
    {
        "entity": "brand",
        "path": "$.brand"
    },
    {
        "entity":"model",
        "path":"$.model"
    },
    {
        "entity":"color",
        "path":"$.color"
    },
    {
        "entity":"formulation",
        "path":"$.formulation"
    },
    {
        "entity":"finish",
        "path":"$.finish"
    },
    {
        "entity":"product_type",
        "path":"$.product_type"
    },
    {
        "entity":"age_range",
        "path":"$.age_range"
    },
    {
        "entity":"benefit",
        "path":"$.benefit"
    },
    {
        "entity":"concerns",
        "path":"$.concerns"
    },
    {
        "entity":"skin_type",
        "path":"$.skin_type"
    },
    {
        "entity":"coverage",
        "path":"$.coverage"
    },
    {
        "entity":"size",
        "path":"$.size"
    },
    {
        "entity":"spf",
        "path":"$.spf"
    },
    {
        "entity":"price",
        "path":"$.price.amount"
    },
    {
        "entity":"description",
        "path":"$.description"
    }
]
