[
    {
        "entity": "system_category",
        "path": "$.category"
    },
    {
        "entity": "brand",
        "path": "$.brand"
    },
    {
        "entity":"model",
        "path":"$.model"
    },
    {
        "entity":"color",
        "path":"$.color"
    },
    {
        "entity":"finish",
        "path":"$.finish"
    },
    {
        "entity":"formulation",
        "path":"$.formulation"
    },
    {
        "entity":"coverage",
        "path":"$.coverage"
    },
    {
        "entity":"skin_type",
        "path":"$.skin_type",
        "separator": ","
    },
    {
        "entity":"price",
        "path":"$.price.amount"
    },
    {
        "entity":"benefit",
        "path":"$.benefit"
    },
    {
        "entity":"bristle_material",
        "path":"$.bristle_material"
    },
    {
        "entity":"volume",
        "path":"$.volume"
    },
    {
        "entity":"size",
        "path":"$.size"
    },
    {
        "entity":"model_sku",
        "path":"$.model_sku"
    },
    {
        "entity":"description",
        "path":"$.description"
    }
]
