{
  "name": "sunglasses-mens-oakley-trans-pl",
  "desc": "Oakley Mens Sunglasses sunglasshut.com transformation pipeline",
  "pyFiles": [
    {
      "pyFile": "gs://content_us/framework/stage/dependencies/us.zip"
    }
  ],
  "arguments": [
    {
      "pipeline": "gs://content_us/framework/stage/pipelines/product/product_transformation_pipeline.json"
    },
    {
      "var": "project_id=mercari-us-de,bucket_name=content_us,env=stage,app=sunglasshut,source=sunglasshut.com,category=sunglasses_mens,brand=oakley,entity_template=sunglasses_mens_oakley_entity_template.json,entity_mapped_schema=sunglasses_mens_oakley_entity_schema.json,key_mapper_script=us.sunglasshut.transform.key_mapper,inputPath=content_us/raw/sunglasshut.com/sunglasses/oakley/2019-12-23_11_49_08/json/sunglasshut.txt"
    }
  ],
  "driver": {
    "cores": 1,
    "coreLimit": "1",
    "memory": "3g"
  },
  "executor": {
    "cores": 1,
    "instances": 1,
    "memory": "3g"
  },
  "pipeline_properties": {
    "modules": [
      {
        "type": "modules.transformation_module.TransformationModule",
        "properties": {
          "name": "transformer",
          "input": "raw",
          "output": "transformed",
          "partition": 1,
          "map_class": "us.$app.transform.pre_product_transformation_script.Mapper"
        }
      }
    ]
  }
}
