{
  "name": "fjallraven-backpacks-trans-pl",
  "desc": "Fjallraven Backpacks fjallraven.com transformation pipeline",
  "pyFiles": [
    {
      "pyFile": "gs://content_us/framework/stage/dependencies/us.zip"
    }
  ],
  "arguments": [
    {
      "pipeline": "gs://content_us/framework/stage/pipelines/product/product_transformation_pipeline.json"
    },
    {
      "var": "project_id=mercari-us-de,bucket_name=content_us,env=stage,app=fjallraven,source=fjallraven.com,category=backpacks,brand=fjallraven,entity_template=backpacks_entity_template.json,entity_mapped_schema=backpacks_entity_schema.json,key_mapper_script=us.fjallraven.transform.key_mapper,inputPath=content_us/raw/fjallraven.com/backpacks/fjallraven/2020-05-13_03_02_56/json/fjallraven.txt"
    }
  ],
  "driver": {
    "cores": 1,
    "coreLimit": "1",
    "memory": "3g"
  },
  "executor": {
    "cores": 1,
    "instances": 1,
    "memory": "3g"
  },
  "pipeline_properties": {
    "modules": [
      {
        "type": "modules.transformation_module.TransformationModule",
        "properties": {
          "name": "transformer",
          "input": "raw",
          "output": "transformed",
          "partition": 1,
          "map_class": "us.$app.transform.pre_product_transformation_script.Mapper"
        }
      }
    ]
  }
}
