{
  "name": "topps-sports-trans-pl",
  "desc": "Topps - Sport Cards & Collectibles - transformation pipeline",
  "pyFiles": [
    {
      "pyFile": "gs://content_us/framework/stage/dependencies/us.zip"
    }
  ],
  "arguments": [
    {
      "pipeline": "gs://content_us/framework/stage/pipelines/product/product_transformation_pipeline.json"
    },
    {
      "var": "project_id=mercari-us-de,bucket_name=content_us,env=stage,app=topps,source=topps.com,category=sport_cards_collectibles,brand=topps,entity_template=sport_cards_collectibles_entity_template.json,entity_mapped_schema=sport_cards_collectibles_entity_schema.json,key_mapper_script=us.topps.transform.key_mapper,inputPath=content_us/raw/topps.com/sports/topps/2019-11-23_00_50_39/json/topps.txt"
    }
  ],
  "driver": {
    "cores": 1,
    "coreLimit": "1",
    "memory": "3g"
  },
  "executor": {
    "cores": 1,
    "instances": 1,
    "memory": "3g"
  },
  "pipeline_properties": {
    "modules": [
      {
        "type": "modules.transformation_module.TransformationModule",
        "properties": {
          "name": "transformer",
          "input": "raw",
          "output": "transformed",
          "partition": 1,
          "map_class": "us.$app.transform.pre_product_transformation_script.Mapper"
        }
      }
    ]
  }
}
