{
    "name": "myvideogamelist-n64-transformation-pipeline",
    "desc": "Myvideogamelist Nintendo 64 transformation pipeline",
    "pyFiles": [{
        "pyFile": "gs://content_us/framework/$env/dependencies/us.zip"
    }],
    "arguments": [{
            "pipeline": "gs://content_us/framework/$env/pipelines/product/product_transformation_pipeline.json"
        },
        {
            "var": "project_id=mercari-us-de,bucket_name=content_us,env=$env,app=myvideogamelist,source=myvideogamelist.com,category=video_games,brand=nintendo_64,entity_template=videogame_entity_template.json,entity_mapped_schema=videogame_entity_schema.json,key_mapper_script=us.myvideogamelist.transform.key_mapper,inputPath=content_us/raw/myvideogamelist.com/video_games/nintendo/nintendo_64/2019-11-01_11_11_10/json/myvideogamelist.txt"
        }
    ],
    "driver": {
        "cores": 1,
        "coreLimit": "1",
        "memory": "3g"
    },
    "executor": {
        "cores": 1,
        "instances": 1,
        "memory": "3g"
    },
    "pipeline_properties": {
        "modules": [{
            "type": "modules.transformation_module.TransformationModule",
            "properties": {
                "name": "transformer",
                "input": "raw",
                "output": "transformed",
                "partition": 1,
                "map_class": "us.$app.transform.pre_product_transformation_script.Mapper"
            }
        }]
    }
}