{
  "name": "tonylama-men_s_shoes-tony_lama-trans-pl",
  "desc": "tonylama men_s_shoes tony_lama transformation pipeline",
  "pyFiles": [
    {
      "pyFile": "gs://content_us/framework/$env/dependencies/us.zip"
    }
  ],
  "arguments": [
    {
      "pipeline": "gs://content_us/framework/$env/pipelines/product/product_transformation_pipeline.json"
    },
    {
      "var": "project_id=mercari-us-de,bucket_name=content_us,env=$env,app=tonylama,source=tonylama.com,category=men_s_shoes,brand=tony_lama,entity_template=men_s_shoes_tony_lama_entity_template.json,entity_mapped_schema=men_s_shoes_tony_lama_entity_schema.json,key_mapper_script=us.tonylama.transform.men_s_shoes.tony_lama.key_mapper,inputPath=content_us/raw/tonylama.com/mens_shoes/tony_lama/2021-06-06_15_11_31/json/tonylama.txt"
    }
  ],
  "driver": {
    "cores": 1,
    "coreLimit": "1",
    "memory": "3g"
  },
  "executor": {
    "cores": 1,
    "instances": 1,
    "memory": "3g"
  },
  "pipeline_properties": {
    "modules": [
      {
        "type": "modules.transformation_module.TransformationModule",
        "properties": {
          "name": "transformer",
          "input": "raw",
          "output": "transformed",
          "partition": 1,
          "map_class": "us.$app.transform.$category.$brand.pre_product_transformation_script.Mapper"
        }
      }
    ]
  }
}
