{
    "name": "tagging-pipeline",
    "description": "Batch Spark pipeline for tagging existing items and writing to GBQ",
    "readers" : [
        {
            "type": "modules.readers.bq_input_module.BQInputModule",
            "properties": {
                "name": "bq_input",
                "output": "raw",
                "projectId": "sage-shard-740",
                "dataset": "analytics_us",
                "table": "searches_20191016",
                "query": "SELECT uuid, user_id, session_id, keyword, searched, os FROM `sage-shard-740.analytics_us.searches_20191017` WHERE keyword IS NOT NULL AND keyword <> \"\" AND search_type = \"keyword\" LIMIT 10"
            }
        }
    ],
    "modules": [
        {
            "type": "modules.transformation_module.TransformationModule",
            "properties": {
                "name": "query_tagger_transform",
                "input": "raw",
                "output": "query_tagger_transformed",
                "map_class": "us.mert.transform.item_tagger.Mapper"
            }
        },
        {
            "type": "modules.schema_module.SchemaModule",
            "properties": {
                "name": "tagger-schema-validator",
                "input": "query_tagger_transformed",
                "output": "output_schema_passed",
                "failed": "output_schema_failed",
                "schema": "$entity_mapped_schema"
            }
        }
    ],
    "writers" : [
        {
            "type": "modules.writers.bq_output_module.BQOutputModule",
            "properties": {
                "name": "bq_output",
                "input": "output_schema_passed",
                "projectId": "mercari-us-de",
                "dataset": "test_hara",
                "table": "test_query_tags",
                "bucket": "content_us"
            }
        }
    ]
}