[
    {
        "entity": "system_category",
        "path": "$.category"
    },
    {
        "entity": "brand",
        "path": "$.brand"
    },
    {
        "entity":"model",
        "path":"$.model"
    },
    {
        "entity":"model_sku",
        "path":"$.model_sku"
    },
    {
        "entity":"storage_capacity",
        "path":"$.storage_capacity"
    },
    {
        "entity":"color",
        "path":"$.color"
    },
    {
        "entity":"screen_size",
        "path":"screen_size"
    },
    {
        "entity":"resolution",
        "path":"resolution"
    },
    {
        "entity":"release_date",
        "path":"$.release_date"
    },
    {
        "entity":"msrp",
        "path":"$.msrp.amount"
    },
    {
        "entity":"rear_camera",
        "path":"$.rear_camera"
    },
    {
        "entity":"front_camera",
        "path":"$.front_camera"
    },
    {
        "entity":"height",
        "path":"$.height"
    },
    {
        "entity":"width",
        "path":"$.width"
    },
    {
        "entity":"depth",
        "path":"$.depth"
    },
    {
        "entity":"weight",
        "path":"$.weight"
    },
    {
        "entity":"ram_size",
        "path":"$.ram_size"
    },
    {
        "entity":"processor_model",
        "path":"$.processor_model"
    }
]