[
    {
        "entity": "system_category",
        "path": "$.category"
    },
    {
        "entity": "brand",
        "path": "$.brand"
    },
    {
        "entity":"series",
        "path":"$.series"
    },
    {
        "entity":"model",
        "path":"$.model"
    },
    {
        "entity":"storage_capacity",
        "path":"$.storage_capacity"
    },
    {
        "entity":"color",
        "path":"$.color",
        "separator": ","
    },
    {
        "entity":"msrp",
        "path":"$.msrp.amount"
    },
    {
        "entity":"screen_size",
        "path":"$.screen_size"
    },
    {
        "entity":"operating_system",
        "path":"$.operating_system"
    },
    {
        "entity":"model_sku",
        "path":"$.model_sku"
    },
    {
        "entity":"release_date",
        "path":"$.release_date"
    },
    {
        "entity":"motion",
        "path":"$.motion"
    },
    {
        "entity":"cpu_brand",
        "path":"$.cpu_brand"
    },
    {
        "entity":"gpu_video_card",
        "path":"$.gpu_video_card"
    },
    {
        "entity":"memory_ram_capacity",
        "path":"$.memory_ram_capacity"
    },
    {
        "entity":"display",
        "path":"$.display"
    },
    {
        "entity":"rear_camera_resolution",
        "path":"$.rear_camera_resolution"
    },
    {
        "entity":"front_camera_resolution",
        "path":"$.front_camera_resolution"
    },
    {
        "entity":"sensor_technology",
        "path":"$.sensor_technology"
    },
    {
        "entity":"battery_type",
        "path":"$.battery_type"
    },
    {
        "entity":"height",
        "path":"$.height"
    },
    {
        "entity":"width",
        "path":"$.width"
    },
    {
        "entity":"depth",
        "path":"$.depth"
    },
    {
        "entity":"weight",
        "path":"$.weight"
    },
    {
        "entity":"connectors_supported",
        "path":"$.connectors_supported"
    },
    {
        "entity":"speaker_design",
        "path":"$.speaker_design"
    }
]
