{
  "name": "fandom-children-and-young-adult-books-dr-seuss-trans-pl",
  "desc": "Dr. Seuss Books fandom.com transformation pipeline",
  "pyFiles": [
    {
      "pyFile": "gs://content_us/framework/$env/dependencies/us.zip"
    }
  ],
  "arguments": [
    {
      "pipeline": "gs://content_us/framework/$env/pipelines/product/product_transformation_pipeline.json"
    },
    {
      "var": "project_id=mercari-us-de,bucket_name=content_us,env=$env,app=fandom,source=fandom.com,category=children_and_young_adult_books,brand=dr_seuss,entity_template=children_and_young_adult_books-dr_seuss_entity_template.json,entity_mapped_schema=children_and_young_adult_books-dr_seuss_entity_schema.json,key_mapper_script=us.fandom.transform.children_and_young_adult_books.dr_seuss.key_mapper,inputPath=content_us/raw/fandom.com/children__young_adult_books/dr._seuss/2021-04-13_14_25_12/json/fandom.txt"
    }
  ],
  "driver": {
    "cores": 1,
    "coreLimit": "1",
    "memory": "3g"
  },
  "executor": {
    "cores": 1,
    "instances": 1,
    "memory": "3g"
  },
  "pipeline_properties": {
    "modules": [
      {
        "type": "modules.transformation_module.TransformationModule",
        "properties": {
          "name": "transformer",
          "input": "raw",
          "output": "transformed",
          "partition": 1,
          "map_class": "us.$app.transform.$category.$brand.pre_product_transformation_script.Mapper"
        }
      }
    ]
  }
}
