{
    "name": "louisvuitton-transformation-pipeline",
    "description": "Louisvuitton Transformation pipeline",
    "readers" : [
        {
            "type": "modules.readers.gcs_input_module.GcsInputModule",
            "properties": {
                "name": "input",
                "output": "raw",
                "read_format": "text",
                "path": "$inputPath",
                "headers": "false"
            }
        }
    ],
    "modules": [
        {
            "type": "modules.transformation_module.TransformationModule",
            "properties": {
                "name": "transformer",
                "input": "raw",
                "output": "transformed",
                "partition": 3,
                "map_class": "us.$app.transform.pre_product_transformation_script.Mapper"
            }
        }
    ],
    "writers" : [
        {
            "type": "modules.writers.gcs_output_module.GcsOutputModule",
            "properties": {
                "name": "gcs_output",
                "input": "transformed",
                "partition": 1,
                "write_format": "text",
                "path": "imaginea_content_us/framework/dev/data/apps/$source/$category/$brand/pre_product_transformation/",
                "header": "false"
            }
        }
    ],
    "reporters" : [
        {
            "type": "reporters.console_reporter.ConsoleReporter"
        },
        {
            "type": "reporters.gcs_reporter.GcsReporter",
            "properties": {
                "path": "imaginea_content_us/framework/dev/data/apps/$source/$category/$brand/pre_product_transformation/"
            }
        }
    ],
    "notifiers": [
        {
            "type": "modules.notifiers.google_pub_sub_module.GooglePubSubModule",
            "properties": {
                "name": "gcs_pub_sub_pipeline",
                "topic": "projects/mercari-us-imaginea-dev/topics/mario-api",
                "message": {
                    "details": {
                        "action": "slack_alert",
                        "channel": "#de-content-ops",
                        "job_id": "",
                        "description": "Louisvuitton Transformation Pipeline completed successfully. Written to path imaginea_content_us/framework/dev/data/apps/$source/$category/$brand/pre_product_transformation/$timestamp/"
                    }
                }
            }
        },
        {
            "type": "modules.notifiers.google_pub_sub_module.GooglePubSubModule",
            "properties": {
                "name": "gcs_pub_sub_pipeline",
                "topic": "projects/mercari-us-imaginea-dev/topics/mario-api",
                "message": {
                    "details": {
                        "action": "pipeline",
                        "job_id": "calling-2nd-pipeline",
                        "name": "louisvuitton-entity-mapper-pipeline",
                        "desc": "Louisvuitton entity mapper pipeline",
                        "files": [
                            {
                              "file": "gs://imaginea_content_us/framework/dev/dependencies/configs/apps/$app/louisvuitton_entity_template.json"
                            }
                        ],
                        "pyFiles": [
                            {
                                "pyFile": "gs://imaginea_content_us/framework/dev/dependencies/us.zip"
                            }
                        ],
                        "arguments": [
                            {
                                "pipeline": "gs://imaginea_content_us/framework/dev/pipelines/$app/louisvuitton_entity_map_pipeline.json"
                            },
                            {
                                "var": "app=louisvuitton,source=louisvuitton.com,category=shoulder_bags,brand=louisvuitton,inputPath=imaginea_content_us/framework/dev/data/apps/$source/$category/$brand/pre_product_transformation/$timestamp/gcs_output/part-*.txt"
                            }
                        ],
                        "driver": {
                             "cores": 1,
                             "coreLimit": "1",
                             "memory": "3g"
                        },
                        "executor": {
                            "cores": 1,
                            "instances": 3,
                            "memory": "3g"
                        }
                    }
                }
            }
        }
    ]
}