{
  "name": "chanel-sandals-trans-pl",
  "desc": "Chanel Sandals chanel.com transformation pipeline",
  "pyFiles": [
    {
      "pyFile": "gs://content_us/framework/stage/dependencies/us.zip"
    }
  ],
  "arguments": [
    {
      "pipeline": "gs://content_us/framework/stage/pipelines/product/product_transformation_pipeline.json"
    },
    {
      "var": "project_id=mercari-us-de,bucket_name=content_us,env=stage,app=chanel,source=chanel.com,category=sandals,brand=chanel,entity_template=sandals_entity_template.json,entity_mapped_schema=sandals_entity_schema.json,key_mapper_script=us.chanel.transform.key_mapper,inputPath=content_us/raw/chanel.com/sandals/chanel/2020-05-14_19_18_39/json/chanel.txt"
    }
  ],
  "driver": {
    "cores": 1,
    "coreLimit": "1",
    "memory": "3g"
  },
  "executor": {
    "cores": 1,
    "instances": 1,
    "memory": "3g"
  },
  "pipeline_properties": {
    "modules": [
      {
        "type": "modules.transformation_module.TransformationModule",
        "properties": {
          "name": "transformer",
          "input": "raw",
          "output": "transformed",
          "partition": 1,
          "map_class": "us.$app.transform.pre_product_transformation_script.Mapper"
        }
      }
    ]
  }
}
