{
    "name": "rebag-wsb-bb-trans-pl",
    "desc": "rebag Burberry Women's Shoulder Bags transformation pipeline",
    "pyFiles": [
        {
            "pyFile": "gs://content_us/framework/stage/dependencies/us.zip"
        }
    ],
    "arguments": [
        {
            "pipeline": "gs://content_us/framework/prod/pipelines/product/product_transformation_pipeline.json"
        },
        {
            "var": "project_id=mercari-us-de,bucket_name=content_us,env=stage,app=rebag,source=rebag.com,category=womens_shoulder_bags,brand=burberry,entity_template=rebag-shoulder_bags_burberry_entity_template.json,entity_mapped_schema=rebag-shoulder_bags_burberry_entity_schema.json,key_mapper_script=us.rebag.transform.womens_shoulder_bags.burberry.key_mapper,inputPath=content_us/raw/rebag.com/shoulder_bags/burberry/2020-06-05_17_49_53/json/rebag.txt"
        }
    ],
    "driver": {
        "cores": 1,
        "coreLimit": "1",
        "memory": "3g"
    },
    "executor": {
        "cores": 1,
        "instances": 1,
        "memory": "3g"
    },
    "pipeline_properties": {
      "modules": [
        {
          "type": "modules.transformation_module.TransformationModule",
          "properties": {
            "name": "transformer",
            "input": "raw",
            "output": "transformed",
            "partition": 1,
            "map_class": "us.$app.$category.$brand.transform.pre_product_transformation_script.Mapper"
          }
        }
      ]
    }
}