{
    "name": "rebag-satchel-lv-trans-pl",
    "desc": "rebag satchel transformation pipeline",
    "pyFiles": [
        {
            "pyFile": "gs://content_us/framework/prod/dependencies/us.zip"
        }
    ],
    "arguments": [
        {
            "pipeline": "gs://content_us/framework/prod/pipelines/product/product_transformation_pipeline.json"
        },
        {
            "var": "project_id=mercari-us-de,bucket_name=content_us,env=prod,app=rebag,source=rebag.com,category=satchel,brand=louisvuitton,entity_template=rebag-clutch_entity_template.json,entity_mapped_schema=rebag-clutch_entity_schema.json,key_mapper_script=us.rebag.transform.clutch_key_mapper,inputPath=content_us/raw/rebag.com/satchel/louis_vuitton/2019-11-27_15_22_55/json/rebag.txt"
        }
    ],
    "driver": {
        "cores": 1,
        "coreLimit": "1",
        "memory": "3g"
    },
    "executor": {
        "cores": 1,
        "instances": 1,
        "memory": "3g"
    },
    "pipeline_properties": {
      "modules": [
        {
          "type": "modules.transformation_module.TransformationModule",
          "properties": {
            "name": "transformer",
            "input": "raw",
            "output": "transformed",
            "partition": 1,
            "map_class": "us.$app.transform.pre_product_transformation_script.Mapper"
          }
        }
      ]
    }
}