[
    {
        "entity": "system_category",
        "path": "$.category"
    },
    {
        "entity": "brand",
        "path": "$.brand"
    },
    {
        "entity": "model",
        "path": "$.model"
    },
    {
        "entity": "color",
        "path": "$.color"
    },
    {
        "entity": "material",
        "path": "$.material"
    },
    {
        "entity": "height",
        "path": "$.height"
    },
    {
        "entity": "width",
        "path": "$.width"
    },
    {
        "entity": "depth",
        "path": "$.depth"
    },
    {
        "entity": "price",
        "path": "$.price.amount"
    },
    {
        "entity": "item_condition",
        "path": "$.item_condition"
    },
    {
        "entity": "product_line",
        "path": "$.product_line"
    },
    {
        "entity": "msrp",
        "path": "$.est_retail.amount"
    }
]

