[
    {
        "entity": "system_category",
        "path": "$.category"
    },
    {
        "entity": "brand",
        "path": "$.brand"
    },
    {
        "entity":"model",
        "path":"$.model"
    },
    {
        "entity":"character",
        "path":"$.character"
    },
    {
        "entity":"product_line",
        "path":"$.product_line"
    },
    {
        "entity":"age",
        "path":"$.age"
    },
    {
        "entity":"hair_color",
        "path":"$.hair_color"
    },
    {
        "entity":"eye_color",
        "path":"$.eye_color"
    },
    {
        "entity":"price",
        "path":"$.price.amount"
    },
    {
        "entity":"msrp",
        "path":"$.msrp.amount"
    },
    {
        "entity":"model_sku",
        "path":"$.model_sku"
    }
]
