{
    "name": "jewlery-charms-james-avery-transformation-pipeline",
    "desc": "Jewlery Charms James Avery transformation pipeline",
    "pyFiles": [{
        "pyFile": "gs://content_us/framework/stage/dependencies/us.zip"
    }],
    "arguments": [{
            "pipeline": "gs://content_us/framework/stage/pipelines/product/product_transformation_pipeline.json"
        },
        {
            "var": "project_id=mercari-us-de,bucket_name=content_us,env=stage,app=jamesavery,source=jamesavery.com,category=jewelry_charms,brand=james_avery,entity_template=jewelry_charms_entity_template.json,entity_mapped_schema=jewelry_charms_entity_schema.json,key_mapper_script=us.jamesavery.transform.jewelry_charms.james_avery.key_mapper,inputPath=content_us/raw/jamesavery.com/jewelry_charms/james_avery/2020-04-22_21_51_24/json/jamesavery.txt"
        }
    ],
    "driver": {
        "cores": 1,
        "coreLimit": "1",
        "memory": "3g"
    },
    "executor": {
        "cores": 1,
        "instances": 1,
        "memory": "3g"
    },
    "pipeline_properties": {
        "modules": [{
            "type": "modules.transformation_module.TransformationModule",
            "properties": {
                "name": "transformer",
                "input": "raw",
                "output": "transformed",
                "partition": 1,
                "map_class": "us.$app.transform.$category.$brand.pre_product_transformation_script.Mapper"
            }
        }]
    }
}