[
    {
        "entity": "system_category",
        "path": "$.category"
    },
    {
        "entity": "brand",
        "path": "$.brand"
    },
    {
        "entity": "color",
        "path": "$.color"
    },
    {
        "entity": "model",
        "path": "$.title"
    },
    {
        "entity": "shoe_height",
        "path": "$.shoe_height"
    },
    {
        "entity": "series",
        "path": "$.series"
    },
    {
        "entity": "product_line",
        "path": "$.product_line"
    },
    {
        "entity": "technology",
        "path": "$.technology"
    },
    {
        "entity": "shoe_width",
        "path": "$.shoe_width"
    },
    {
        "entity": "use",
        "path": "$.use"
    },
    {
        "entity": "closure_type",
        "path": "$.closure_type"
    },
    {
        "entity": "features",
        "path": "$.features"
    },
    {
        "entity": "us_shoe_size_mens",
        "path": "$.us_shoe_size_mens",
        "seperator": ","
    },
    {
        "entity": "msrp",
        "path": "$.msrp.amount"
    },
    {
        "entity": "model_sku",
        "path": "$.model_sku"
    }
]
