{
  "name": "victoriassecret-womens-tracksuits-sweats-trans-pl",
  "desc": "victoriassecret womens_tracksuits_sweats transformation pipeline",
  "pyFiles": [
    {
      "pyFile": "gs://content_us/framework/stage/dependencies/us.zip"
    }
  ],
  "arguments": [
    {
      "pipeline": "gs://content_us/framework/stage/pipelines/product/product_transformation_pipeline.json"
    },
    {
      "var": "project_id=mercari-us-de,bucket_name=content_us,env=stage,app=victoriassecret,source=victoriassecret.com,category=womens_tracksuits_sweats,brand=pink,entity_template=womens_tracksuits_sweats_entity_template.json,entity_mapped_schema=womens_tracksuits_sweats_entity_schema.json,key_mapper_script=us.victoriassecret.transform.womens_tracksuits_sweats.key_mapper,inputPath=content_us/raw/victoriassecret.com/womens_tracksuits_sweats/pink/2020-10-18_21_04_18/json/victoriassecret.txt"
    }
  ],
  "driver": {
    "cores": 1,
    "coreLimit": "1",
    "memory": "3g"
  },
  "executor": {
    "cores": 1,
    "instances": 1,
    "memory": "3g"
  },
  "pipeline_properties": {
    "modules": [
      {
        "type": "modules.transformation_module.TransformationModule",
        "properties": {
          "name": "transformer",
          "input": "raw",
          "output": "transformed",
          "partition": 1,
          "map_class": "us.$app.transform.$category.pre_product_transformation_script.Mapper"
        }
      }
    ]
  }
}
