{
  "name": "victoriassecret-pants-tights-leggings-trans-pl",
  "desc": "victoriassecret pants tights leggings transformation pipeline",
  "pyFiles": [
    {
      "pyFile": "gs://content_us/framework/prod/dependencies/us.zip"
    }
  ],
  "arguments": [
    {
      "pipeline": "gs://content_us/framework/prod/pipelines/product/product_transformation_pipeline.json"
    },
    {
      "var": "project_id=mercari-us-de,bucket_name=content_us,env=prod,app=victoriassecret,source=victoriassecret.com,category=pants_tights_leggings,brand=pink,entity_template=pants_tights_leggings_entity_template.json,entity_mapped_schema=pants_tights_leggings_entity_schema.json,key_mapper_script=us.victoriassecret.transform.pants_tights_leggings.key_mapper,inputPath=content_us/raw/victoriassecret.com/pants_tights_leggings/pink/2019-12-07_01_45_00/json/victoriassecret.txt"
    }
  ],
  "driver": {
    "cores": 1,
    "coreLimit": "1",
    "memory": "3g"
  },
  "executor": {
    "cores": 1,
    "instances": 1,
    "memory": "3g"
  },
  "pipeline_properties": {
    "modules": [
      {
        "type": "modules.transformation_module.TransformationModule",
        "properties": {
          "name": "transformer",
          "input": "raw",
          "output": "transformed",
          "partition": 1,
          "map_class": "us.$app.transform.$category.pre_product_transformation_script.Mapper"
        }
      }
    ]
  }
}
