{
  "name": "magenta-home_decor_accents-rae_dunn-trans-pl",
  "desc": "Rae Dunn Home decor accents magenta-inc.com transformation pipeline",
  "pyFiles": [
    {
      "pyFile": "gs://content_us/framework/$env/dependencies/us.zip"
    }
  ],
  "arguments": [
    {
      "pipeline": "gs://content_us/framework/$env/pipelines/product/dedupe/product_transformation_pipeline.json"
    },
    {
      "var": "project_id=mercari-us-de,bucket_name=content_us,env=$env,app=magenta,source=magenta.com,category=home_decor_accents,brand=rae_dunn,entity_template=home_decor_accents_entity_template.json,entity_mapped_schema=home_decor_accents_entity_schema.json,key_mapper_script=us.magenta.transform.home_decor_accents.key_mapper,inputPath=content_us/raw/magenta.com/home_decor_accents/rae_dunn/2021-02-15_10_51_34/json/magenta.txt,dedupe_criteria_system_category=Home%20decor%20accents,dedupe_criteria_brand=Rae%20Dunn,pre_product_dedupe_column=model,kg_raw_items_dedupe_column=model,merge_func=us.product.transform.merge_func.Merger"
    }
  ],
  "driver": {
    "cores": 1,
    "coreLimit": "1",
    "memory": "3g"
  },
  "executor": {
    "cores": 1,
    "instances": 1,
    "memory": "3g"
  },
  "pipeline_properties": {
    "modules": [
      {
        "type": "modules.transformation_module.TransformationModule",
        "properties": {
          "name": "transformer",
          "input": "raw",
          "output": "transformed",
          "partition": 1,
          "map_class": "us.$app.transform.$category.pre_product_transformation_script.Mapper"
        }
      }
    ]
  }
}
