[
    {
        "entity": "system_category",
        "path": "$.category"
    },
    {
        "entity": "brand",
        "path": "$.brand"
    },
    {
        "entity":"platform",
        "path":"$.platform"
    },
    {
        "entity":"model",
        "path":"$.model"
    },
    {
        "entity":"color",
        "path":"$.color"
    },
    {
        "entity": "storage_capacity",
        "path": "$.storage_capacity"
    },
    {
        "entity":"price",
        "path":"$.price.amount"
    },
    {
        "entity":"release_date",
        "path":"$.release_date"
    },
    {
        "entity":"upc",
        "path":"$.upc",
        "separator": ", "
    }
]
