[
    {
        "entity": "system_category",
        "path": "$.category"
    },
    {
        "entity": "brand",
        "path": "$.brand"
    },
    {
        "entity":"model",
        "path":"$.model"
    },
    {
        "entity":"color",
        "path":"$.color"
    },
    {
        "entity":"volume",
        "path":"$.volume"
    },
    {
        "entity":"diameter",
        "path":"$.diameter"
    },
    {
        "entity":"height",
        "path":"$.height"
    },
    {
        "entity":"weight",
        "path":"$.weight"
    }
]
