[
    {
        "entity": "system_category",
        "path": "$.category"
    },
    {
        "entity": "brand",
        "path": "$.brand"
    },
    {
        "entity":"model",
        "path":"$.model"
    },
    {
        "entity":"color",
        "path":"$.color"
    },
    {
        "entity":"material",
        "path":"$.material"
    },
    {
        "entity":"product_type",
        "path":"$.product_type"
    },
    {
        "entity":"price",
        "path":"$.price.amount"
    },
    {
        "entity":"description",
        "path":"$.description"
    },
    {
        "entity":"style",
        "path":"$.style"
    }
]
