{
    "name": "comfortiva-women_s_socks-comfortiva-trans-pl",
    "desc": "comfortiva women_s_socks comfortiva transformation pipeline",
    "pyFiles": [
      {
        "pyFile": "gs://content_us/framework/$env/dependencies/us.zip"
      }
    ],
    "arguments": [
      {
        "pipeline": "gs://content_us/framework/$env/pipelines/product/product_transformation_pipeline.json"
      },
      {
        "var": "project_id=mercari-us-de,bucket_name=content_us,env=$env,app=comfortiva,source=comfortiva.com,category=women_s_socks,brand=comfortiva,entity_template=women_s_socks_entity_template.json,entity_mapped_schema=women_s_socks_entity_schema.json,key_mapper_script=us.comfortiva.transform.women_s_socks.comfortiva.key_mapper,inputPath=content_us/raw/comfortiva.com/womens_socks/comfortiva/2021-07-02_14_03_18/json/comfortiva.txt"
      }
    ],
    "driver": {
      "cores": 1,
      "coreLimit": "1",
      "memory": "3g"
    },
    "executor": {
      "cores": 1,
      "instances": 1,
      "memory": "3g"
    },
    "pipeline_properties": {
      "modules": [
        {
          "type": "modules.transformation_module.TransformationModule",
          "properties": {
            "name": "transformer",
            "input": "raw",
            "output": "transformed",
            "partition": 1,
            "map_class": "us.$app.transform.$category.$brand.pre_product_transformation_script.Mapper"
          }
        }
      ]
    }
  }
  