{
  "name": "coach-womens-wallets-trans-pl",
  "desc": "Coach.com women's wallets transformation pipeline",
  "pyFiles": [
    {
      "pyFile": "gs://content_us/framework/stage/dependencies/us.zip"
    }
  ],
  "arguments": [
    {
      "pipeline": "gs://content_us/framework/stage/pipelines/product/product_transformation_pipeline.json"
    },
    {
      "var": "project_id=mercari-us-de,bucket_name=content_us,env=stage,app=coach,source=coach.com,category=womens_wallets,brand=coach,entity_template=womens_wallets_entity_template.json,entity_mapped_schema=womens_wallets_entity_schema.json,key_mapper_script=us.coach.transform.womens_wallets.key_mapper,inputPath=content_us/raw/coach.com/womens_wallets/coach/2020-05-26_14_19_11/json/coach.txt"
    }
  ],
  "driver": {
    "cores": 1,
    "coreLimit": "1",
    "memory": "3g"
  },
  "executor": {
    "cores": 1,
    "instances": 1,
    "memory": "3g"
  },
  "pipeline_properties": {
    "modules": [
      {
        "type": "modules.transformation_module.TransformationModule",
        "properties": {
          "name": "transformer",
          "input": "raw",
          "output": "transformed",
          "partition": 1,
          "map_class": "us.$app.transform.$category.pre_product_transformation_script.Mapper"
        }
      }
    ]
  }
}
