[{
        "entity": "system_category",
        "path": "$.category"
    },
    {
        "entity": "brand",
        "path": "$.brand"
    },
    {
        "entity": "model",
        "path": "$.model"
    },
    {
        "entity": "gender",
        "path": "$.gender"
    },
    {
        "entity": "price",
        "path": "$.price.amount"
    },
    {
        "entity": "color",
        "path": "$.color"
    },
    {
        "entity": "size",
        "path": "$.size"
    },
    {
        "entity": "product_type",
        "path": "$.product_type"
    },
    {
        "entity": "description",
        "path": "$.description"
    },
    {
        "entity": "upc",
        "path": "$.upc"
    },
    {
        "entity": "spf",
        "path": "$.spf"
    }

]