[
    {
        "entity": "system_category",
        "path": "$.category"
    },
    {
        "entity": "brand",
        "path": "$.brand"
    },
    {
        "entity":"platform",
        "path":"$.platform"
    },
    {
        "entity":"model",
        "path":"$.model"
    },
    {
        "entity": "storage_capacity",
        "path": "$.storage_capacity"
    },
    {
        "entity":"color",
        "path":"$.color"
    },
    {
        "entity":"price",
        "path":"$.price.amount"
    },
    {
        "entity":"item_condition",
        "path":"$.condition"
    }
]
