[
    {
        "entity": "system_category",
        "path": "$.category"
    },
    {
        "entity": "brand",
        "path": "$.brand"
    },
    {
        "entity":"model",
        "path":"$.model"
    },
    {
        "entity":"color",
        "path":"$.color"
    },
    {
        "entity":"material",
        "path":"$.material"
    },
    {
        "entity":"price",
        "path":"$.price.amount"
    },
    {
        "entity":"water_resistance",
        "path":"$.water_resistance"
    },
    {
        "entity":"battery_life",
        "path":"$.battery_life"
    },
    {
        "entity":"model_sku",
        "path":"$.model_sku"
    },
    {
        "entity":"function",
        "path":"$.function"
    },
    {
        "entity":"product_line",
        "path":"$.product_line"
    }
]
