{
  "name": "hobbydb-collectible_comics-funko-trans-pl",
  "desc": "hobbydb collectible_comics funko transformation pipeline",
  "pyFiles": [
    {
      "pyFile": "gs://content_us/framework/$env/dependencies/us.zip"
    }
  ],
  "arguments": [
    {
      "pipeline": "gs://content_us/framework/$env/pipelines/product/product_transformation_pipeline.json"
    },
    {
      "var": "project_id=mercari-us-de,bucket_name=content_us,env=$env,app=hobbydb,source=hobbydb.com,category=collectible_comics,brand=funko,entity_template=collectible_comics_entity_template.json,entity_mapped_schema=collectible_comics_entity_schema.json,key_mapper_script=us.hobbydb.transform.collectible_comics.key_mapper,inputPath=content_us/raw/hobbydb.com/action_figures/funko/2021-05-07-13-48-40/json/hobbydb.txt"
    }
  ],
  "driver": {
    "cores": 1,
    "coreLimit": "1",
    "memory": "3g"
  },
  "executor": {
    "cores": 1,
    "instances": 1,
    "memory": "3g"
  },
  "pipeline_properties": {
    "modules": [
      {
        "type": "modules.transformation_module.TransformationModule",
        "properties": {
          "name": "transformer",
          "input": "raw",
          "output": "transformed",
          "partition": 1,
          "map_class": "us.$app.transform.$category.pre_product_transformation_script.Mapper"
        }
      }
    ]
  }
}
