{
  "name": "alexandani-bracelets-alexandani-trans-pl",
  "desc": "ALEX AND ANI Bracelets in alexandani.com transformation pipeline",
  "pyFiles": [
    {
      "pyFile": "gs://content_us/framework/$env/dependencies/us.zip"
    }
  ],
  "arguments": [
    {
      "pipeline": "gs://content_us/framework/$env/pipelines/product/product_transformation_pipeline.json"
    },
    {
      "var": "project_id=mercari-us-de,bucket_name=content_us,env=$env,app=alexandani,source=alexandani.com,category=bracelets,brand=alexandani,entity_template=bracelets_entity_template.json,entity_mapped_schema=bracelets_entity_schema.json,key_mapper_script=us.alexandani.transform.bracelets.key_mapper,inputPath=content_us/raw/alexandani.com/bracelets/alex_and_ani/2020-11-24-08-14-08/json/alexandani.txt"
    }
  ],
  "driver": {
    "cores": 1,
    "coreLimit": "1",
    "memory": "3g"
  },
  "executor": {
    "cores": 1,
    "instances": 1,
    "memory": "3g"
  },
  "pipeline_properties": {
    "modules": [
      {
        "type": "modules.transformation_module.TransformationModule",
        "properties": {
          "name": "transformer",
          "input": "raw",
          "output": "transformed",
          "partition": 1,
          "map_class": "us.$app.transform.$category.pre_product_transformation_script.Mapper"
        }
      }
    ]
  }
}
