{
    "name": "nike-sports-bra-nike-trans-pl",
    "desc": "Nike - Sports Bra transformation pipeline",
    "pyFiles": [
        {
            "pyFile": "gs://content_us/framework/stage/dependencies/us.zip"
        }
    ],
    "arguments": [
        {
            "pipeline": "gs://content_us/framework/stage/pipelines/product/product_transformation_pipeline.json"
        },
        {
            "var":"project_id=mercari-us-de,bucket_name=content_us,env=stage,app=nike,source=nike.com,category=sports_bra,brand=nike,entity_template=nike-sports_bra_entity_template.json,entity_mapped_schema=nike-sports_bra_entity_schema.json,key_mapper_script=us.nike.transform.sports_bra.key_mapper,inputPath=content_us/raw/nike.com/sports_bra/nike/2020-09-03_21_25_21/json/nike.txt"
        }
    ],
    "driver": {
        "cores": 1,
        "coreLimit": "1",
        "memory": "3g"
    },
    "executor": {
        "cores": 1,
        "instances": 1,
        "memory": "3g"
    },
    "pipeline_properties": {
      "modules": [
        {
          "type": "modules.transformation_module.TransformationModule",
          "properties": {
            "name": "transformer",
            "input": "raw",
            "output": "transformed",
            "partition": 1,
            "map_class": "us.$app.transform.$category.pre_product_transformation_script.Mapper"
          }
        }
      ]
    }
}