{
    "name": "nike-boys-4-plus-shoes-trans-pl",
    "desc": "Nike - Boys (4+) Shoes transformation pipeline",
    "pyFiles": [
        {
            "pyFile": "gs://content_us/framework/prod/dependencies/us.zip"
        }
    ],
    "arguments": [
        {
            "pipeline": "gs://content_us/framework/prod/pipelines/product/product_transformation_pipeline.json"
        },
        {
            "var":"project_id=mercari-us-de,bucket_name=content_us,env=prod,app=nike,source=nike.com,category=boys_shoes,brand=nike,entity_template=nike-boys_4_plus_shoes_entity_template.json,entity_mapped_schema=nike-boys_4_plus_shoes_entity_schema.json,key_mapper_script=us.nike.transform.boys_shoes.key_mapper,inputPath=content_us/raw/nike.com/boys_shoes/nike/2019-12-10_16_55_19/json/nike.txt"
        }
    ],
    "driver": {
        "cores": 1,
        "coreLimit": "1",
        "memory": "3g"
    },
    "executor": {
        "cores": 1,
        "instances": 1,
        "memory": "3g"
    },
    "pipeline_properties": {
      "modules": [
        {
          "type": "modules.transformation_module.TransformationModule",
          "properties": {
            "name": "transformer",
            "input": "raw",
            "output": "transformed",
            "partition": 1,
            "map_class": "us.$app.transform.$category.pre_product_transformation_script.Mapper"
          }
        }
      ]
    }
}