[
    {
        "entity": "system_category",
        "path": "$.category"
    },
    {
        "entity":"color",
        "path":"$.color",
        "separator":", "
    },
    {
        "entity":"design_features",
        "path":"$.design_features",
        "separator":", "
    },
    {
        "entity": "brand",
        "path": "$.brand"
    },
    {
        "entity":"model",
        "path":"$.model"
    },
    {
        "entity":"msrp",
        "path":"$.msrp.amount"
    },
    {
        "entity":"rise",
        "path":"$.rise",
        "separator":", "
    },
    {
        "entity":"wash",
        "path":"$.wash",
        "separator":", "
    },
    {
        "entity":"accents",
        "path":"$.accents",
        "separator":", "
    },
    {
        "entity":"material",
        "path":"$.material",
        "separator":", "
    },
    {
        "entity":"inseam",
        "path":"$.inseam"
    },
    {
        "entity":"opening",
        "path":"$.opening"
    },
    {
        "entity":"description",
        "path":"$.description"
    }
    
]
