[
    {
        "entity": "system_category",
        "path": "$.category"
    },
    {
        "entity": "brand",
        "path": "$.brand"
    },
    {
        "entity":"model",
        "path":"$.model"
    },
    {
        "entity":"color",
        "path":"$.color"
    },
    {
        "entity":"material",
        "path":"$.material"
    },
    {
        "entity":"msrp",
        "path":"$.price.amount"
    },
    {
        "entity":"style",
        "path":"$.style"
    },
    {
        "entity":"front_rise",
        "path":"$.front_rise"
    },
    {
        "entity":"back_rise",
        "path":"$.back_rise"
    },
    {
        "entity":"inseam",
        "path":"$.inseam"
    },
    {
        "entity":"wash",
        "path":"$.wash"
    },
    {
        "entity":"size",
        "path":"$.size"
    },
    {
        "entity":"model_sku",
        "path":"$.model_sku"
    },
    {
        "entity":"description",
        "path":"$.description"
    }
]
