[
    {
        "entity": "system_category",
        "path": "$.category"
    },
    {
        "entity": "brand",
        "path": "$.brand"
    },
    {
        "entity":"metal_type",
        "path":"$.metal_type"
    },
    {
        "entity":"product_type",
        "path":"$.product_type"
    },
    {
        "entity":"color",
        "path":"$.color"
    },
    {
        "entity":"model",
        "path":"$.model"
    },
    {
        "entity":"msrp",
        "path":"$.msrp.amount"
    },
    {
        "entity":"description",
        "path":"$.description"
    },
    {
        "entity":"width",
        "path":"$.width"
    },
    {
        "entity":"length",
        "path":"$.length"
    }
]
