[
    {
        "entity": "system_category",
        "path": "$.category"
    },
    {
        "entity": "brand",
        "path": "$.brand"
    },
    {
        "entity": "model",
        "path": "$.model"
    },
    {
        "entity": "product_type",
        "path": "$.product_type"
    },
    {
        "entity": "wattage",
        "path": "$.wattage"
    },
    {
        "entity": "finish",
        "path": "$.finish"
    },
    {
        "entity": "dimension",
        "path": "$.dimension"
    },
    {
        "entity": "msrp",
        "path": "$.price.amount"
    }
]
