{
  "name": "7amenfant-diaper_bags-7_am_enfant-trans-pl",
  "desc": "7amenfant diaper_bags 7_am_enfant transformation pipeline",
  "pyFiles": [
    {
      "pyFile": "gs://content_us/framework/$env/dependencies/us.zip"
    }
  ],
  "arguments": [
    {
      "pipeline": "gs://content_us/framework/$env/pipelines/product/product_transformation_pipeline.json"
    },
    {
      "var": "project_id=mercari-us-de,bucket_name=content_us,env=$env,app=7amenfant,source=7amenfant.com,category=diaper_bags,brand=7_am_enfant,entity_template=diaper_bags_entity_template.json,entity_mapped_schema=diaper_bags_entity_schema.json,key_mapper_script=us.7amenfant.transform.key_mapper,inputPath=content_us/raw/7amenfant.com/diaper_bags/7am_enfant/2021-05-05-15-00-36/json/7amenfant.txt"
    }
  ],
  "driver": {
    "cores": 1,
    "coreLimit": "1",
    "memory": "3g"
  },
  "executor": {
    "cores": 1,
    "instances": 1,
    "memory": "3g"
  },
  "pipeline_properties": {
    "modules": [
      {
        "type": "modules.transformation_module.TransformationModule",
        "properties": {
          "name": "transformer",
          "input": "raw",
          "output": "transformed",
          "partition": 1,
          "map_class": "us.$app.transform.pre_product_transformation_script.Mapper"
        }
      }
    ]
  }
}
