{
    "name": "konami-animation-collectable-trading-cards-trans-pl",
    "desc": "konami Animation Collectable Trading Cards, TCGplayer.com transformation pipeline",
    "pyFiles": [
      {
        "pyFile": "gs://content_us/framework/$env/dependencies/us.zip"
      }
    ],
    "arguments": [
      {
        "pipeline": "gs://content_us/framework/$env/pipelines/product/product_transformation_pipeline.json"
      },
      {
        "var": "project_id=mercari-us-de,bucket_name=content_us,env=$env,app=tcgplayer,source=tcgplayer.com,category=animation_collectable_trading_cards,brand=Konami,entity_template=konami_yugioh_trading_card_games_entity_template.json,entity_mapped_schema=konami_yugioh_trading_card_games_entity_schema.json,key_mapper_script=us.tcgplayer.transform.konami.key_mapper,inputPath=content_us/raw/tcgplayer.com/animation_collectable_trading_cards/konami/2021-03-17-05-12-22/json/tcgplayer.txt"
      }
    ],
    "driver": {
      "cores": 1,
      "coreLimit": "1",
      "memory": "3g"
    },
    "executor": {
      "cores": 1,
      "instances": 1,
      "memory": "3g"
    },
    "pipeline_properties": {
      "modules": [
        {
          "type": "modules.transformation_module.TransformationModule",
          "properties": {
            "name": "transformer",
            "input": "raw",
            "output": "transformed",
            "partition": 1,
            "map_class": "us.$app.transform.konami.pre_product_transformation_script.Mapper"
          }
        }
      ]
    }
  }
  