{
    "name": "realreal-transformation-pipeline",
    "desc": "realreal michael kors transformation pipeline",
    "pyFiles": [
        {
            "pyFile": "gs://imaginea_content_us/framework/dev/dependencies/us.zip"
        }
    ],
    "arguments": [
        {
            "pipeline": "gs://imaginea_content_us/framework/dev/pipelines/product/product_transformation_pipeline.json"
        },
        {
            "var":"project_id=mercari-us-imaginea-dev,bucket_name=imaginea_content_us,env=dev,app=realreal,source=realreal.com,category=shoulder_bags,brand=michael_kors,entity_template=realreal_entity_template.json,inputPath=content_us/raw/realreal.com/shoulder_bags/michael_kors/2019-08-09_09_20_48/json/realreal.txt"
        }
    ],
    "driver": {
        "cores": 1,
        "coreLimit": "1",
        "memory": "3g"
    },
    "executor": {
        "cores": 1,
        "instances": 3,
        "memory": "3g"
    }
}