{
    "name": "realreal-earrings chanel-trans-pl",
    "desc": "realreal Earrings Chanel transformation pipeline",
    "pyFiles": [
      {
        "pyFile": "gs://content_us/framework/stage/dependencies/us.zip"
      }
    ],
    "arguments": [
      {
        "pipeline": "gs://content_us/framework/stage/pipelines/product/product_transformation_pipeline.json"
      },
      {
        "var": "project_id=mercari-us-de,bucket_name=content_us,env=stage,app=realreal,source=realreal.com,category=earrings,brand=chanel,entity_template=realreal_earrings_chanel_entity_template.json,entity_mapped_schema=realreal_earrings_chanel_entity_schema.json,key_mapper_script=us.realreal.transform.earrings.chanel.key_mapper,inputPath=content_us/raw/realreal.com/earrings/chanel/2019-12-23_15_37_39/json/realreal.txt"
      }
    ],
    "driver": {
      "cores": 1,
      "coreLimit": "1",
      "memory": "3g"
    },
    "executor": {
      "cores": 1,
      "instances": 3,
      "memory": "3g"
    },
    "pipeline_properties": {
      "modules": [
        {
          "type": "modules.transformation_module.TransformationModule",
          "properties": {
            "name": "transformer",
            "input": "raw",
            "output": "transformed",
            "partition": 1,
            "map_class": "us.$app.transform.$category.$brand.pre_product_transformation_script.Mapper"
          }
        }
      ]
    }
  }