{
  "name": "starbucks-coffee-tea-accessories-starbucks-trans-pl",
  "desc": "Starbucks Tumbler & Coffee Accessories starbucks.com transformation pipeline",
  "pyFiles": [
    {
      "pyFile": "gs://content_us/framework/$env/dependencies/us.zip"
    }
  ],
  "arguments": [
    {
      "pipeline": "gs://content_us/framework/$env/pipelines/product/product_transformation_pipeline.json"
    },
    {
      "var": "project_id=mercari-us-de,bucket_name=content_us,env=$env,app=starbucks,source=starbucks.com,category=coffee_tea_accessories,brand=starbucks,entity_template=coffee_tea_accessories_entity_template.json,entity_mapped_schema=coffee_tea_accessories_entity_schema.json,key_mapper_script=us.starbucks.transform.coffee_tea_accessories.key_mapper,inputPath=content_us/raw/co.id/coffee__tea_accessories/starbucks/2020-11-27-08-58-08/json/starbucks.txt"
    }
  ],
  "driver": {
    "cores": 1,
    "coreLimit": "1",
    "memory": "3g"
  },
  "executor": {
    "cores": 1,
    "instances": 1,
    "memory": "3g"
  },
  "pipeline_properties": {
    "modules": [
      {
        "type": "modules.transformation_module.TransformationModule",
        "properties": {
          "name": "transformer",
          "input": "raw",
          "output": "transformed",
          "partition": 1,
          "map_class": "us.$app.transform.$category.pre_product_transformation_script.Mapper"
        }
      }
    ]
  }
}
