[
    {
        "entity": "system_category",
        "path": "$.category"
    },
    {
        "entity": "brand",
        "path": "$.brand"
    },
    {
        "entity":"material",
        "path":"$.material"
    },
    {
        "entity":"model",
        "path":"$.model"
    },
    {
        "entity":"color",
        "path":"$.color"
    },
    {
        "entity":"msrp",
        "path":"$.msrp.amount"
    }
]
