[
    {
        "entity": "system_category",
        "path": "$.category"
    },
    {
        "entity": "brand",
        "path": "$.brand"
    },
    {
        "entity":"model",
        "path":"$.model"
    },
    {
        "entity":"color",
        "path":"$.color"
    },
    {
        "entity":"msrp",
        "path":"$.msrp.amount"
    },
    {
        "entity":"heel_height",
        "path":"$.heel_height"
    }
]

