{
  "name": "blackboughswim-women_s_swimwear-blackbough-trans-pl",
  "desc": "blackboughswim women_s_swimwear blackbough transformation pipeline",
  "pyFiles": [
    {
      "pyFile": "gs://content_us/framework/$env/dependencies/us.zip"
    }
  ],
  "arguments": [
    {
      "pipeline": "gs://content_us/framework/$env/pipelines/product/product_transformation_pipeline.json"
    },
    {
      "var": "project_id=mercari-us-de,bucket_name=content_us,env=$env,app=blackboughswim,source=blackboughswim.com,category=women_s_swimwear,brand=blackbough,entity_template=women_s_swimwear_entity_template.json,entity_mapped_schema=women_s_swimwear_entity_schema.json,key_mapper_script=us.blackboughswim.transform.women_s_swimwear.key_mapper,inputPath=content_us/raw/blackboughswim.com/womens_swimwear/blackbough/2021-05-11-13-47-16/json/blackboughswim.txt"
    }
  ],
  "driver": {
    "cores": 1,
    "coreLimit": "1",
    "memory": "3g"
  },
  "executor": {
    "cores": 1,
    "instances": 1,
    "memory": "3g"
  },
  "pipeline_properties": {
    "modules": [
      {
        "type": "modules.transformation_module.TransformationModule",
        "properties": {
          "name": "transformer",
          "input": "raw",
          "output": "transformed",
          "partition": 1,
          "map_class": "us.$app.transform.$category.pre_product_transformation_script.Mapper"
        }
      }
    ]
  }
}
