[
    {
        "entity": "system_category",
        "path": "$.category"
    },
    {
        "entity": "brand",
        "path": "$.brand"
    },
    {
        "entity": "color",
        "path": "$.color"
    },
    {
        "entity": "material",
        "path": "$.material"
    },
    {
        "entity": "model",
        "path": "$.model"
    },
    {
        "entity": "msrp",
        "path": "$.msrp.amount"
    },
    {
        "entity": "measurement",
        "path": "$.measurement"
    },
    {
        "entity": "length",
        "path": "$.length"
    },
    {
        "entity": "height",
        "path": "$.height"
    },
    {
        "entity": "width",
        "path": "$.width"
    }
]