[
    {
        "entity": "system_category",
        "path": "$.category"
    },
    {
        "entity": "brand",
        "path": "$.brand"
    },
    {
        "entity":"model",
        "path":"$.model"
    },
    {
        "entity":"product_line",
        "path":"$.product_line"
    },
    {
        "entity":"age_range",
        "path":"$.age_range"
    },
    {
        "entity":"number_of_pieces",
        "path":"$.number_of_pieces"
    },
    {
        "entity":"model_sku",
        "path":"$.model_sku"
    },
    {
        "entity":"msrp",
        "path":"$.price.amount"
    },
    {
        "entity":"description",
        "path":"$.description"
    }
]
