{
  "name": "isatapia-womens-shoes-isatapia-trans-pl",
  "desc": "Isa Tapia Shoes Women's Shoes isatapia.com transformation pipeline",
  "pyFiles": [
    {
      "pyFile": "gs://content_us/framework/$env/dependencies/us.zip"
    }
  ],
  "arguments": [
    {
      "pipeline": "gs://content_us/framework/$env/pipelines/product/product_transformation_pipeline.json"
    },
    {
      "var": "project_id=mercari-us-de,bucket_name=content_us,env=$env,app=isatapia,source=isatapia.com,category=womens_shoes,brand=isa_tapia,entity_template=womens_shoes_entity_template.json,entity_mapped_schema=womens_shoes_entity_schema.json,key_mapper_script=us.isatapia.transform.womens_shoes.key_mapper,inputPath=content_us/raw/isatapia.com/womens_shoes/isa_tapia/2020-11-28-04-33-58/json/isatapia.txt"
    }
  ],
  "driver": {
    "cores": 1,
    "coreLimit": "1",
    "memory": "3g"
  },
  "executor": {
    "cores": 1,
    "instances": 1,
    "memory": "3g"
  },
  "pipeline_properties": {
    "modules": [
      {
        "type": "modules.transformation_module.TransformationModule",
        "properties": {
          "name": "transformer",
          "input": "raw",
          "output": "transformed",
          "partition": 1,
          "map_class": "us.$app.transform.$category.pre_product_transformation_script.Mapper"
        }
      }
    ]
  }
}
