[
    {
        "entity": "system_category",
        "path": "$.category"
    },
    {
        "entity": "brand",
        "path": "$.brand"
    },
    {
        "entity":"material",
        "path":"$.material"
    },
    {
        "entity":"boot_shaft_height",
        "path":"$.boot_shaft_height"
    },
    {
        "entity":"model",
        "path":"$.model"
    },
    {
        "entity":"msrp",
        "path":"$.msrp.amount"
    },
    {
        "entity":"model_sku",
        "path":"$.model_sku"
    }
]
