{
    "name": "swappa-transformation-pipeline",
    "desc": "swappa transformation pipeline",
    "pyFiles": [
        {
            "pyFile": "gs://imaginea_content_us/framework/dev/dependencies/us.zip"
        }
    ],
    "arguments": [
        {
            "pipeline": "gs://imaginea_content_us/framework/dev/pipelines/product/product_transformation_pipeline.json"
        },
        {
            "var":"project_id=mercari-us-imaginea-dev,bucket_name=imaginea_content_us,env=dev,app=swappa,source=swappa.com,category=digital_cameras,brand=all_cameras,entity_template=swappa_digital_cameras_entity_template.json,inputPath=content_us/raw/swappa.com/digital_cameras/all_cameras/2019-08-26_19_20_40/json/swappa.txt"
        }
    ],
    "driver": {
        "cores": 1,
        "coreLimit": "1",
        "memory": "3g"
    },
    "executor": {
        "cores": 1,
        "instances": 3,
        "memory": "3g"
    }
}