{
    "name": "swappa-transformation-pipeline",
    "desc": "Swappa transformation pipeline",
    "pyFiles": [
        {
            "pyFile": "gs://imaginea_content_us/framework/dev/dependencies/us.zip"
        }
    ],
    "arguments": [
        {
            "pipeline": "gs://imaginea_content_us/framework/dev/pipelines/product/product_transformation_pipeline.json"
        },
        {
            "var":"project_id=mercari-us-imaginea-dev,bucket_name=imaginea_content_us,env=dev,app=swappa,source=swappa.com,category=laptops_&_netbooks,brand=all_laptops,entity_template=swappa_entity_template.json,inputPath=content_us/raw/swappa.com/laptops_&_netbooks/all_laptops/2019-08-19_18_28_29/json/swappa.txt"
        }
    ],
    "driver": {
        "cores": 1,
        "coreLimit": "1",
        "memory": "3g"
    },
    "executor": {
        "cores": 1,
        "instances": 3,
        "memory": "3g"
    }
}