[
  {
    "entity": "system_category",
    "path": "$.category"
  },
  {
    "entity": "brand",
    "path": "$.brand"
  },
  {
    "entity": "model",
    "path": "$.model"
  },
  {
    "entity": "cable_length",
    "path": "$.cable_length"
  },
  {
    "entity": "model_number",
    "path": "$.model_number"
  },
  {
    "entity": "description",
    "path": "$.description"
  },
  {
    "entity": "usb_type",
    "path": "$.usb_type"
  },
  {
    "entity": "accessories_included",
    "path": "$.accessories_included"
  },
  {
    "entity": "connector_type",
    "path": "$.connector_type"
  }
]