[
  {
    "entity": "system_category",
    "path": "$.system_category"
  },
  {
    "entity": "brand",
    "path": "$.brand"
  },
  {
    "entity": "model",
    "path": "$.model"
  },
  {
    "entity": "storage_capacity",
    "path": "$.storage_capacity"
  },
  {
    "entity": "color",
    "path": "$.color"
  },
  {
    "entity": "model_sku",
    "path": "$.model_number"
  }
]
