[
    {
        "entity": "system_category",
        "path": "$.category"
    },
    {
        "entity": "brand",
        "path": "$.brand"
    },
    {
        "entity":"product_type",
        "path":"$.product_type"
    },
    {
        "entity":"model",
        "path":"$.model"
    },
    {
        "entity":"price",
        "path":"$.price.amount"
    }
]
