{
  "name": "dooney-shoulder-bags-trans-pl",
  "desc": "Dooney & Bourke Shoulder Bags dooney.com transformation pipeline",
  "pyFiles": [
    {
      "pyFile": "gs://content_us/framework/stage/dependencies/us.zip"
    }
  ],
  "arguments": [
    {
      "pipeline": "gs://content_us/framework/stage/pipelines/product/product_transformation_pipeline.json"
    },
    {
      "var": "project_id=mercari-us-de,bucket_name=content_us,env=stage,app=dooney,source=dooney.com,category=shoulder_bags,brand=dooney_bourke,entity_template=shoulder_bags_entity_template.json,entity_mapped_schema=shoulder_bags_entity_schema.json,key_mapper_script=us.dooney.transform.key_mapper,inputPath=content_us/raw/dooney.com/shoulder_bags/dooney_bourke/2020-05-20_23_51_02/json/dooney.txt"
    }
  ],
  "driver": {
    "cores": 1,
    "coreLimit": "1",
    "memory": "3g"
  },
  "executor": {
    "cores": 1,
    "instances": 1,
    "memory": "3g"
  },
  "pipeline_properties": {
    "modules": [
      {
        "type": "modules.transformation_module.TransformationModule",
        "properties": {
          "name": "transformer",
          "input": "raw",
          "output": "transformed",
          "partition": 1,
          "map_class": "us.$app.transform.$category.pre_product_transformation_script.Mapper"
        }
      }
    ]
  }
}
