{
  "name": "sportscarddatabase-sports-trading-cards-accessories-baseball-topps-trans-pl",
  "desc": "Topps Sports Trading Cards Baseball Trading Cards in SportsCardDatabase.com transformation pipeline",
  "pyFiles": [
    {
      "pyFile": "gs://content_us/framework/$env/dependencies/us.zip"
    }
  ],
  "arguments": [
    {
      "pipeline": "gs://content_us/framework/$env/pipelines/product/product_transformation_pipeline.json"
    },
    {
      "var": "project_id=mercari-us-de,bucket_name=content_us,env=$env,app=sportscarddatabase,source=sportscarddatabase.com,category=sports_trading_cards_accessories,brand=topps,entity_template=sports_trading_cards_accessories_entity_template.json,entity_mapped_schema=sports_trading_cards_accessories_entity_schema.json,key_mapper_script=us.sportscarddatabase.transform.sports_trading_cards_accessories.key_mapper,inputPath=content_us/raw/sportscarddatabase.com/sports_trading_cards__accessories/topps/2021-03-16_16_35_48/json/sportscarddatabase.txt"
    }
  ],
  "driver": {
    "cores": 1,
    "coreLimit": "1",
    "memory": "3g"
  },
  "executor": {
    "cores": 1,
    "instances": 10,
    "memory": "3g"
  },
  "pipeline_properties": {
    "modules": [
      {
        "type": "modules.transformation_module.TransformationModule",
        "properties": {
          "name": "transformer",
          "input": "raw",
          "output": "transformed",
          "partition": 1,
          "map_class": "us.$app.transform.$category.pre_product_transformation_script.Mapper"
        }
      }
    ]
  }
}
