{
  "name": "gamestop-x360-transformation-pipeline",
  "desc": "Gamestop - Video Game Consoles - microsoft xbox 360 transformation pipeline",
  "pyFiles": [
    {
      "pyFile": "gs://content_us/framework/stage/dependencies/us.zip"
    }
  ],
  "arguments": [
    {
      "pipeline": "gs://content_us/framework/stage/pipelines/product/product_transformation_pipeline.json"
    },
    {
      "var": "project_id=mercari-us-de,bucket_name=content_us,env=stage,app=gamestop,source=gamestop.com,category=videogame_consoles,brand=xbox_360,entity_template=videogame_entity_template.json,entity_mapped_schema=videogame_entity_schema.json,key_mapper_script=us.gamestop.transform.videogame_consoles.microsoft.key_mapper,inputPath=content_us/raw/gamestop.com/video_game_consoles/microsoft/xbox_360/2020-06-13_20_52_46/json/gamestop.txt"
    }
  ],
  "driver": {
    "cores": 1,
    "coreLimit": "1",
    "memory": "3g"
  },
  "executor": {
    "cores": 1,
    "instances": 1,
    "memory": "3g"
  },
  "pipeline_properties": {
    "modules": [
      {
        "type": "modules.transformation_module.TransformationModule",
        "properties": {
          "name": "transformer",
          "input": "raw",
          "output": "transformed",
          "partition": 1,
          "map_class": "us.$app.transform.$category.microsoft.pre_product_transformation_script.Mapper"
        }
      }
    ]
  }
}
