{
  "name": "gamestopmerchandise-nintendo -transformation-pipeline",
  "desc": "Gamestop - Video Game Merchandise - Nintendo  transformation pipeline",
  "pyFiles": [
    {
      "pyFile": "gs://content_us/framework/stage/dependencies/us.zip"
    }
  ],
  "arguments": [
    {
      "pipeline": "gs://content_us/framework/stage/pipelines/product/product_transformation_pipeline.json"
    },
    {
      "var": "project_id=mercari-us-de,bucket_name=content_us,env=stage,app=gamestop,source=gamestop.com,category=video_game_merchandise,brand=nintendo,entity_template=videogamemerchandise_nintendo_entity_template.json,entity_mapped_schema=videogamemerchandise_nintendo_entity_schema.json,key_mapper_script=us.gamestop.transform.video_game_merchandise.key_mapper,inputPath=content_us/raw/gamestop.com/video_gaming_merchandise/nintendo/2020-02-26_16_49_19/json/gamestop.txt"
    }
  ],
  "driver": {
    "cores": 1,
    "coreLimit": "1",
    "memory": "3g"
  },
  "executor": {
    "cores": 1,
    "instances": 1,
    "memory": "3g"
  },
  "pipeline_properties": {
    "modules": [
      {
        "type": "modules.transformation_module.TransformationModule",
        "properties": {
          "name": "transformer",
          "input": "raw",
          "output": "transformed",
          "partition": 1,
          "map_class": "us.$app.transform.$category.pre_product_transformation_script.Mapper"
        }
      }
    ]
  }
}
