[
    {
        "entity": "system_category",
        "path": "$.category"
    },
    {
        "entity": "brand",
        "path": "$.brand"
    },
    {
        "entity":"model",
        "path":"$.model"
    },
    {
        "entity":"color",
        "path":"$.color",
        "separator":", "
    },
    {
        "entity":"material",
        "path":"$.material"
    },
    {
        "entity":"msrp",
        "path":"$.price.amount"
    },
    {
        "entity":"product_line",
        "path":"$.product_line",
        "separator":", "
    },
    {
        "entity":"lining_material",
        "path":"$.lining_material"
    },
    {
        "entity":"length",
        "path":"$.length"
    },
    {
        "entity":"height",
        "path":"$.height"
    },
    {
        "entity":"depth",
        "path":"$.depth"
    },
    {
        "entity":"description",
        "path":"$.description"
    },
    {
        "entity":"model_sku",
        "path":"$.model_sku"
    }
]
